<svg width="24" height="24" viewBox="0 0 24 24" fill="none" xmlns="http://www.w3.org/2000/svg">
<path d="M9.43109 4C9.04755 4 8.67334 4.03375 8.31157 4.09937C8.21038 4.11747 8.11745 4.16247 8.04469 4.2286C7.97194 4.29474 7.92265 4.37901 7.90316 4.47062L7.63157 5.73998C7.6198 5.7949 7.59514 5.84689 7.55925 5.89245C7.52335 5.93801 7.47707 5.97607 7.42351 6.00407C7.36996 6.03206 7.31039 6.04933 7.24882 6.05472C7.18725 6.0601 7.12512 6.05348 7.06663 6.03528L5.71181 5.61342C5.61483 5.58303 5.51005 5.57938 5.41077 5.60291C5.31149 5.62644 5.22216 5.6761 5.15412 5.7456C4.65287 6.2589 4.26981 6.85743 4.02735 7.5062C3.99436 7.59436 3.99114 7.68941 4.01809 7.77923C4.04504 7.86905 4.10095 7.94958 4.17869 8.01057L5.26193 8.86087C5.30871 8.89757 5.34622 8.94292 5.37193 8.99387C5.39764 9.04482 5.41094 9.10017 5.41094 9.15618C5.41094 9.21218 5.39764 9.26753 5.37193 9.31848C5.34622 9.36943 5.30871 9.41479 5.26193 9.45148L4.17869 10.3018C4.10115 10.3627 4.04537 10.4431 4.01843 10.5327C3.99148 10.6223 3.99459 10.7172 4.02735 10.8052C4.26994 11.4539 4.65299 12.0524 5.15412 12.5658C5.22204 12.6355 5.31131 12.6853 5.4106 12.709C5.50989 12.7327 5.61473 12.7292 5.71181 12.6989L7.06663 12.2771C7.12505 12.2589 7.18711 12.2522 7.24861 12.2575C7.31012 12.2629 7.36965 12.2801 7.42319 12.308C7.47673 12.3359 7.52303 12.3738 7.55898 12.4193C7.59492 12.4647 7.61968 12.5166 7.63157 12.5714L7.90316 13.8417C7.92258 13.9332 7.97171 14.0174 8.04427 14.0835C8.11683 14.1496 8.20953 14.1947 8.31054 14.213C9.0531 14.3468 9.81764 14.3462 10.5599 14.2111C10.6608 14.1929 10.7534 14.148 10.8259 14.082C10.8985 14.0161 10.9477 13.9321 10.9673 13.8408L11.2389 12.5714C11.2507 12.5165 11.2753 12.4645 11.3112 12.419C11.3471 12.3734 11.3934 12.3353 11.447 12.3073C11.5005 12.2794 11.5601 12.2621 11.6217 12.2567C11.6832 12.2513 11.7453 12.2579 11.8038 12.2761L13.1514 12.698C13.2486 12.7282 13.3535 12.7315 13.4528 12.7077C13.5521 12.6838 13.6413 12.6338 13.7091 12.5639C14.2108 12.0495 14.5939 11.4497 14.8359 10.7996C14.8686 10.7116 14.8717 10.6167 14.8448 10.5271C14.8178 10.4374 14.7621 10.3571 14.6845 10.2962L13.6075 9.45055C13.5609 9.41385 13.5235 9.36855 13.4979 9.31769C13.4723 9.26682 13.4591 9.21159 13.4591 9.15571C13.4591 9.09982 13.4723 9.04459 13.4979 8.99373C13.5235 8.94287 13.5609 8.89756 13.6075 8.86087L14.6856 8.01526C14.7629 7.95423 14.8185 7.87381 14.8453 7.78419C14.872 7.69456 14.8687 7.59977 14.8359 7.51182C14.5937 6.86207 14.2107 6.26256 13.7091 5.74841C13.6413 5.67859 13.5521 5.62857 13.4528 5.6047C13.3535 5.58083 13.2486 5.58419 13.1514 5.61435L11.8038 6.03622C11.7453 6.05441 11.6831 6.06101 11.6214 6.05556C11.5598 6.05012 11.5002 6.03277 11.4466 6.00468C11.3931 5.97659 11.3468 5.93842 11.311 5.89275C11.2751 5.84708 11.2505 5.79498 11.2389 5.73998L10.9673 4.47156C10.9478 4.38037 10.8987 4.29648 10.8264 4.23055C10.754 4.16462 10.6616 4.11962 10.561 4.10125C10.189 4.03373 9.81049 3.99981 9.43109 4ZM7.87724 9.15618C7.87724 8.78322 8.04106 8.42554 8.33266 8.16182C8.62425 7.8981 9.01974 7.74995 9.43213 7.74995C9.84451 7.74995 10.24 7.8981 10.5316 8.16182C10.8232 8.42554 10.987 8.78322 10.987 9.15618C10.987 9.52913 10.8232 9.88681 10.5316 10.1505C10.24 10.4143 9.84451 10.5624 9.43213 10.5624C9.01974 10.5624 8.62425 10.4143 8.33266 10.1505C8.04106 9.88681 7.87724 9.52913 7.87724 9.15618ZM12.7109 13.7939C12.7728 13.7203 12.8592 13.6668 12.9574 13.6411C13.0556 13.6154 13.1603 13.6191 13.2561 13.6514L14.0854 13.9102C14.1491 13.9299 14.2168 13.9371 14.2838 13.9312C14.3509 13.9253 14.4158 13.9065 14.4741 13.876C14.5324 13.8456 14.5829 13.8042 14.622 13.7546C14.6612 13.705 14.6882 13.6484 14.7011 13.5886L14.867 12.8105C14.8838 12.719 14.9329 12.635 15.0068 12.5708C15.0808 12.5066 15.1757 12.4657 15.2774 12.4543C15.5252 12.4315 15.775 12.4315 16.0228 12.4543C16.2321 12.473 16.3918 12.623 16.4322 12.8105L16.5981 13.5886C16.611 13.6485 16.638 13.7052 16.6772 13.7549C16.7164 13.8045 16.767 13.846 16.8254 13.8765C16.8839 13.907 16.9489 13.9258 17.0161 13.9316C17.0833 13.9374 17.151 13.9301 17.2148 13.9102L18.0441 13.6514C18.1399 13.6192 18.2446 13.6157 18.3427 13.6413C18.4409 13.667 18.5273 13.7205 18.5893 13.7939C18.7345 13.9758 18.8599 14.1717 18.9625 14.378C19.0023 14.4632 19.0107 14.5577 18.9864 14.6475C18.9621 14.7373 18.9065 14.8177 18.8278 14.8767L18.1643 15.397C18.1136 15.4371 18.0728 15.4865 18.0449 15.5419C18.017 15.5974 18.0026 15.6576 18.0026 15.7186C18.0026 15.7795 18.017 15.8397 18.0449 15.8952C18.0728 15.9507 18.1136 16.0001 18.1643 16.0401L18.8278 16.5604C18.9065 16.6194 18.9621 16.6998 18.9864 16.7896C19.0107 16.8795 19.0023 16.974 18.9625 17.0592C18.8599 17.2654 18.7345 17.4614 18.5893 17.6432C18.5273 17.7167 18.4409 17.7702 18.3427 17.7958C18.2446 17.8215 18.1399 17.818 18.0441 17.7857L17.2148 17.527C17.1511 17.5072 17.0834 17.5001 17.0164 17.506C16.9493 17.5118 16.8844 17.5307 16.8261 17.5611C16.7678 17.5916 16.7173 17.633 16.6782 17.6826C16.639 17.7322 16.612 17.7888 16.5991 17.8486L16.4332 18.6267C16.4164 18.7181 16.3673 18.8022 16.2934 18.8664C16.2194 18.9306 16.1245 18.9714 16.0228 18.9829C15.775 19.0057 15.5252 19.0057 15.2774 18.9829C15.1759 18.9713 15.0812 18.9303 15.0075 18.8661C14.9337 18.802 14.8848 18.718 14.868 18.6267L14.7011 17.8486C14.6882 17.7886 14.6612 17.7319 14.622 17.6823C14.5828 17.6326 14.5322 17.5912 14.4737 17.5607C14.4153 17.5302 14.3503 17.5114 14.2831 17.5056C14.2159 17.4998 14.1481 17.5071 14.0843 17.527L13.2561 17.7857C13.1603 17.818 13.0556 17.8215 12.9575 17.7958C12.8593 17.7702 12.7729 17.7167 12.7109 17.6432C12.5646 17.4607 12.4395 17.265 12.3377 17.0592C12.2979 16.974 12.2895 16.8795 12.3138 16.7896C12.3381 16.6998 12.3937 16.6194 12.4724 16.5604L13.1359 16.0401C13.1867 16.0001 13.2274 15.9507 13.2553 15.8952C13.2832 15.8397 13.2976 15.7795 13.2976 15.7186C13.2976 15.6576 13.2832 15.5974 13.2553 15.5419C13.2274 15.4865 13.1867 15.4371 13.1359 15.397L12.4724 14.8767C12.3937 14.8177 12.3381 14.7373 12.3138 14.6475C12.2895 14.5577 12.2979 14.4632 12.3377 14.378C12.4403 14.1717 12.5657 13.9758 12.7109 13.7939ZM16.6882 15.7186C16.6882 15.4699 16.579 15.2315 16.3846 15.0557C16.1902 14.8799 15.9266 14.7811 15.6517 14.7811C15.3767 14.7811 15.1131 14.8799 14.9187 15.0557C14.7243 15.2315 14.6151 15.4699 14.6151 15.7186C14.6151 15.9672 14.7243 16.2057 14.9187 16.3815C15.1131 16.5573 15.3767 16.6561 15.6517 16.6561C15.9266 16.6561 16.1902 16.5573 16.3846 16.3815C16.579 16.2057 16.6882 15.9672 16.6882 15.7186Z" fill="#438EB9"/>
</svg>
