<svg width="24" height="24" viewBox="0 0 24 24" fill="none" xmlns="http://www.w3.org/2000/svg">
<rect width="24" height="24" rx="12" fill="#176697"/>
<g clip-path="url(#clip0_4985_61963)">
<path d="M15.2905 7.07012L12.158 6.02562C12.0554 5.99146 11.9446 5.99146 11.842 6.02562L8.7095 7.07012C8.21145 7.23556 7.77821 7.55375 7.47132 7.97948C7.16444 8.4052 6.99952 8.91681 7 9.44162V12.0001C7 15.7816 11.6 17.8701 11.797 17.9571C11.8609 17.9855 11.9301 18.0002 12 18.0002C12.0699 18.0002 12.1391 17.9855 12.203 17.9571C12.4 17.8701 17 15.7816 17 12.0001V9.44162C17.0005 8.91681 16.8356 8.4052 16.5287 7.97948C16.2218 7.55375 15.7885 7.23556 15.2905 7.07012ZM16 12.0001C16 14.7276 12.8405 16.5166 12 16.9446C11.1585 16.5181 8 14.7346 8 12.0001V9.44162C8.00003 9.12676 8.09914 8.81989 8.28328 8.56449C8.46743 8.30909 8.72727 8.11812 9.026 8.01862L12 7.02712L14.974 8.01862C15.2727 8.11812 15.5326 8.30909 15.7167 8.56449C15.9009 8.81989 16 9.12676 16 9.44162V12.0001Z" fill="white"/>
<path d="M13.5 10.9995H12.5V9.99951C12.5 9.8669 12.4473 9.73973 12.3535 9.64596C12.2598 9.55219 12.1326 9.49951 12 9.49951C11.8674 9.49951 11.7402 9.55219 11.6464 9.64596C11.5527 9.73973 11.5 9.8669 11.5 9.99951V10.9995H10.5C10.3674 10.9995 10.2402 11.0522 10.1464 11.146C10.0527 11.2397 10 11.3669 10 11.4995C10 11.6321 10.0527 11.7593 10.1464 11.8531C10.2402 11.9468 10.3674 11.9995 10.5 11.9995H11.5V12.9995C11.5 13.1321 11.5527 13.2593 11.6464 13.3531C11.7402 13.4468 11.8674 13.4995 12 13.4995C12.1326 13.4995 12.2598 13.4468 12.3535 13.3531C12.4473 13.2593 12.5 13.1321 12.5 12.9995V11.9995H13.5C13.6326 11.9995 13.7598 11.9468 13.8535 11.8531C13.9473 11.7593 14 11.6321 14 11.4995C14 11.3669 13.9473 11.2397 13.8535 11.146C13.7598 11.0522 13.6326 10.9995 13.5 10.9995Z" fill="white"/>
</g>
<defs>
<clipPath id="clip0_4985_61963">
<rect width="12" height="12" fill="white" transform="translate(6 6)"/>
</clipPath>
</defs>
</svg>
