<svg width="24" height="24" viewBox="0 0 24 24" fill="none" xmlns="http://www.w3.org/2000/svg">
<path d="M4.5 11.5C4.5 10.8431 4.91225 10.5 5.21622 10.5C5.52018 10.5 5.93243 10.8431 5.93243 11.5C5.93243 12.1569 5.52018 12.5 5.21622 12.5C4.91225 12.5 4.5 12.1569 4.5 11.5ZM4.5 5.5C4.5 4.84307 4.91225 4.5 5.21622 4.5C5.52018 4.5 5.93243 4.84307 5.93243 5.5C5.93243 6.15693 5.52018 6.5 5.21622 6.5C4.91225 6.5 4.5 6.15693 4.5 5.5ZM4.5 17.5C4.5 16.8507 4.91414 16.5 5.21622 16.5C5.5183 16.5 5.93243 16.8507 5.93243 17.5C5.93243 18.1469 5.51207 18.5 5.21622 18.5C4.92036 18.5 4.5 18.1469 4.5 17.5ZM18.5 17V18H8.14865V17H18.5ZM18.5 11V12H8.14865V11H18.5ZM18.5 6H8.14865V5H18.5V6Z" fill="#438EB9" stroke="white"/>
</svg>
