<svg width="24" height="24" viewBox="0 0 24 24" fill="none" xmlns="http://www.w3.org/2000/svg">
<path d="M9 5.66667H6.66667C5.73333 5.66667 5.26667 5.66667 4.91 5.84833C4.59638 6.00807 4.34141 6.26304 4.18167 6.57667C4 6.93333 4 7.4 4 8.33333V16.3333C4 17.2667 4 17.7333 4.18167 18.09C4.34145 18.4036 4.59641 18.6585 4.91 18.8183C5.26583 19 5.7325 19 6.66417 19H14.6692C15.6008 19 16.0667 19 16.4225 18.8183C16.7367 18.6583 16.9917 18.4033 17.1517 18.09C17.3333 17.7333 17.3333 17.2675 17.3333 16.3358V14M14 6.5L9 11.5V14H11.5L16.5 9M14 6.5L16.5 4L19 6.5L16.5 9M14 6.5L16.5 9" stroke="white" stroke-width="2" stroke-linecap="round" stroke-linejoin="round"/>
</svg>
