<svg width="24" height="24" viewBox="0 0 24 24" fill="none" xmlns="http://www.w3.org/2000/svg">
<circle cx="12" cy="12" r="12" fill="#438EB9"/>
<g clip-path="url(#clip0_452_18648)">
<path d="M11.8702 7.37488L11.8665 15.6085C11.8665 15.7499 11.9227 15.8856 12.0227 15.9856C12.1227 16.0856 12.2584 16.1418 12.3998 16.1418C12.5413 16.1418 12.6769 16.0856 12.777 15.9856C12.877 15.8856 12.9332 15.7499 12.9332 15.6085L12.9369 7.38395L14.49 8.93755C14.59 9.03753 14.7256 9.0937 14.867 9.0937C15.0085 9.0937 15.1441 9.03753 15.2441 8.93755C15.3441 8.83753 15.4003 8.7019 15.4003 8.56048C15.4003 8.41906 15.3441 8.28343 15.2441 8.18341L13.5316 6.46875C13.383 6.32007 13.2066 6.20212 13.0124 6.12165C12.8182 6.04118 12.61 5.99976 12.3998 5.99976C12.1896 5.99976 11.9815 6.04118 11.7873 6.12165C11.5931 6.20212 11.4167 6.32007 11.2681 6.46875L9.55557 8.18181C9.45558 8.28183 9.39941 8.41746 9.39941 8.55888C9.39941 8.7003 9.45558 8.83593 9.55557 8.93595C9.65558 9.03593 9.79121 9.0921 9.93263 9.0921C10.0741 9.0921 10.2097 9.03593 10.3097 8.93595L11.8702 7.37488Z" fill="white"/>
<path d="M17.7333 15.0667V17.2C17.7333 17.3414 17.6771 17.4771 17.5771 17.5771C17.4771 17.6771 17.3414 17.7333 17.2 17.7333H7.6C7.45855 17.7333 7.3229 17.6771 7.22288 17.5771C7.12286 17.4771 7.06667 17.3414 7.06667 17.2V15.0667C7.06667 14.9252 7.01048 14.7896 6.91046 14.6895C6.81044 14.5895 6.67478 14.5333 6.53333 14.5333C6.39188 14.5333 6.25623 14.5895 6.15621 14.6895C6.05619 14.7896 6 14.9252 6 15.0667V17.2C6 17.6243 6.16857 18.0313 6.46863 18.3314C6.76869 18.6314 7.17565 18.8 7.6 18.8H17.2C17.6243 18.8 18.0313 18.6314 18.3314 18.3314C18.6314 18.0313 18.8 17.6243 18.8 17.2V15.0667C18.8 14.9252 18.7438 14.7896 18.6438 14.6895C18.5438 14.5895 18.4081 14.5333 18.2667 14.5333C18.1252 14.5333 17.9896 14.5895 17.8895 14.6895C17.7895 14.7896 17.7333 14.9252 17.7333 15.0667Z" fill="white"/>
</g>
<defs>
<clipPath id="clip0_452_18648">
<rect x="6" y="6" width="12.8" height="12.8" fill="white"/>
</clipPath>
</defs>
</svg>
