<svg width="68" height="28" viewBox="0 0 68 28" fill="none" xmlns="http://www.w3.org/2000/svg">
<rect x="0.25" y="0.25" width="67.5" height="27.5" rx="3.75" fill="white"/>
<g clip-path="url(#clip0_1114_52161)">
<path d="M17.332 11.3349H10.6654V10.6682C10.6652 9.92916 10.9106 9.21098 11.363 8.62661C11.8155 8.04223 12.4493 7.6248 13.1649 7.43993C13.8805 7.25506 14.6372 7.31325 15.3161 7.60535C15.995 7.89744 16.5576 8.40688 16.9154 9.05356C16.9579 9.13012 17.015 9.19756 17.0836 9.25203C17.1522 9.30649 17.2308 9.34692 17.315 9.371C17.3992 9.39508 17.4873 9.40235 17.5743 9.39238C17.6613 9.3824 17.7455 9.3554 17.822 9.31289C17.8986 9.27039 17.966 9.21322 18.0205 9.14465C18.075 9.07608 18.1154 8.99746 18.1395 8.91327C18.1636 8.82908 18.1708 8.74097 18.1608 8.65397C18.1509 8.56697 18.1239 8.48279 18.0814 8.40622C17.5802 7.5011 16.7925 6.78817 15.8421 6.3795C14.8916 5.97083 13.8323 5.88959 12.8306 6.14856C11.8289 6.40752 10.9417 6.992 10.3084 7.81013C9.67516 8.62825 9.33169 9.63363 9.33203 10.6682V11.6176C8.73827 11.8767 8.23289 12.3032 7.8777 12.845C7.5225 13.3868 7.33288 14.0204 7.33203 14.6682V18.6682C7.33309 19.552 7.68462 20.3992 8.30951 21.0241C8.9344 21.649 9.78163 22.0005 10.6654 22.0016H17.332C18.2158 22.0005 19.063 21.649 19.6879 21.0241C20.3128 20.3992 20.6643 19.552 20.6654 18.6682V14.6682C20.6643 13.7845 20.3128 12.9373 19.6879 12.3124C19.063 11.6875 18.2158 11.336 17.332 11.3349ZM19.332 18.6682C19.332 19.1987 19.1213 19.7074 18.7462 20.0824C18.3712 20.4575 17.8625 20.6682 17.332 20.6682H10.6654C10.1349 20.6682 9.62622 20.4575 9.25115 20.0824C8.87608 19.7074 8.66536 19.1987 8.66536 18.6682V14.6682C8.66536 14.1378 8.87608 13.6291 9.25115 13.254C9.62622 12.8789 10.1349 12.6682 10.6654 12.6682H17.332C17.8625 12.6682 18.3712 12.8789 18.7462 13.254C19.1213 13.6291 19.332 14.1378 19.332 14.6682V18.6682Z" fill="#EF4444"/>
<path d="M13.9987 15.334C13.8219 15.334 13.6523 15.4042 13.5273 15.5292C13.4023 15.6543 13.332 15.8238 13.332 16.0006V17.334C13.332 17.5108 13.4023 17.6804 13.5273 17.8054C13.6523 17.9304 13.8219 18.0006 13.9987 18.0006C14.1755 18.0006 14.3451 17.9304 14.4701 17.8054C14.5951 17.6804 14.6654 17.5108 14.6654 17.334V16.0006C14.6654 15.8238 14.5951 15.6543 14.4701 15.5292C14.3451 15.4042 14.1755 15.334 13.9987 15.334Z" fill="#EF4444"/>
</g>
<path d="M27.233 19V8.81818H28.4659V13.8693H28.5852L33.1591 8.81818H34.7699L30.4943 13.4119L34.7699 19H33.2784L29.7386 14.267L28.4659 15.6989V19H27.233ZM37.38 14.4062V19H36.2067V8.81818H37.38V12.5568H37.4794C37.6584 12.1624 37.9268 11.8492 38.2848 11.6172C38.6461 11.3819 39.1267 11.2642 39.7266 11.2642C40.2469 11.2642 40.7027 11.3686 41.0938 11.5774C41.4848 11.7829 41.7881 12.0994 42.0036 12.527C42.2223 12.9512 42.3317 13.4915 42.3317 14.1477V19H41.1584V14.2273C41.1584 13.6207 41.0009 13.1518 40.6861 12.8203C40.3745 12.4856 39.942 12.3182 39.3885 12.3182C39.004 12.3182 38.6593 12.3994 38.3544 12.5618C38.0528 12.7242 37.8142 12.9612 37.6385 13.2727C37.4661 13.5843 37.38 13.9621 37.38 14.4062ZM47.5804 19.1591C46.891 19.1591 46.2862 18.995 45.7658 18.6669C45.2488 18.3388 44.8444 17.8797 44.5527 17.2898C44.2644 16.6998 44.1202 16.0104 44.1202 15.2216C44.1202 14.4261 44.2644 13.7318 44.5527 13.1385C44.8444 12.5452 45.2488 12.0845 45.7658 11.7564C46.2862 11.4283 46.891 11.2642 47.5804 11.2642C48.2698 11.2642 48.873 11.4283 49.3901 11.7564C49.9105 12.0845 50.3148 12.5452 50.6032 13.1385C50.8948 13.7318 51.0407 14.4261 51.0407 15.2216C51.0407 16.0104 50.8948 16.6998 50.6032 17.2898C50.3148 17.8797 49.9105 18.3388 49.3901 18.6669C48.873 18.995 48.2698 19.1591 47.5804 19.1591ZM47.5804 18.1051C48.1041 18.1051 48.535 17.9709 48.873 17.7024C49.2111 17.4339 49.4614 17.081 49.6238 16.6435C49.7862 16.206 49.8674 15.732 49.8674 15.2216C49.8674 14.7112 49.7862 14.2356 49.6238 13.7947C49.4614 13.3539 49.2111 12.9976 48.873 12.7259C48.535 12.4541 48.1041 12.3182 47.5804 12.3182C47.0568 12.3182 46.6259 12.4541 46.2878 12.7259C45.9498 12.9976 45.6995 13.3539 45.5371 13.7947C45.3747 14.2356 45.2935 14.7112 45.2935 15.2216C45.2935 15.732 45.3747 16.206 45.5371 16.6435C45.6995 17.081 45.9498 17.4339 46.2878 17.7024C46.6259 17.9709 47.0568 18.1051 47.5804 18.1051ZM47.0435 10.3295L48.2566 8.02273H49.6287L48.0776 10.3295H47.0435ZM55.0788 19.179C54.5949 19.179 54.1558 19.0878 53.7614 18.9055C53.367 18.7199 53.0537 18.4531 52.8217 18.1051C52.5897 17.7538 52.4737 17.3295 52.4737 16.8324C52.4737 16.3949 52.5599 16.0402 52.7322 15.7685C52.9046 15.4934 53.1349 15.2779 53.4233 15.1222C53.7116 14.9664 54.0298 14.8504 54.3778 14.7741C54.7292 14.6946 55.0821 14.6316 55.4368 14.5852C55.9008 14.5256 56.277 14.4808 56.5653 14.451C56.857 14.4179 57.0691 14.3632 57.2017 14.2869C57.3376 14.2107 57.4055 14.0781 57.4055 13.8892V13.8494C57.4055 13.3589 57.2713 12.9777 57.0028 12.706C56.7377 12.4342 56.335 12.2983 55.7947 12.2983C55.2346 12.2983 54.7955 12.4209 54.4773 12.6662C54.1591 12.9115 53.9354 13.1733 53.8061 13.4517L52.6925 13.054C52.8913 12.59 53.1565 12.2287 53.4879 11.9702C53.8227 11.7083 54.1873 11.526 54.5817 11.4233C54.9794 11.3172 55.3705 11.2642 55.755 11.2642C56.0002 11.2642 56.282 11.294 56.6001 11.3537C56.9216 11.41 57.2315 11.5277 57.5298 11.7067C57.8314 11.8857 58.0817 12.1558 58.2805 12.517C58.4794 12.8783 58.5788 13.3622 58.5788 13.9688V19H57.4055V17.9659H57.3459C57.2663 18.1316 57.1338 18.3089 56.9482 18.4979C56.7625 18.6868 56.5156 18.8475 56.2074 18.9801C55.8991 19.1127 55.523 19.179 55.0788 19.179ZM55.2578 18.125C55.7218 18.125 56.1129 18.0339 56.4311 17.8516C56.7526 17.6693 56.9946 17.4339 57.157 17.1456C57.3227 16.8572 57.4055 16.554 57.4055 16.2358V15.1619C57.3558 15.2216 57.2464 15.2763 57.0774 15.326C56.9117 15.3724 56.7195 15.4138 56.5007 15.4503C56.2853 15.4834 56.0748 15.5133 55.8693 15.5398C55.6671 15.563 55.5031 15.5829 55.3771 15.5994C55.0722 15.6392 54.7872 15.7038 54.522 15.7933C54.2602 15.8795 54.0481 16.0104 53.8857 16.1861C53.7266 16.3584 53.647 16.5937 53.647 16.892C53.647 17.2997 53.7978 17.608 54.0994 17.8168C54.4044 18.0223 54.7905 18.125 55.2578 18.125Z" fill="#EF4444"/>
<rect x="0.25" y="0.25" width="67.5" height="27.5" rx="3.75" stroke="#EF4444" stroke-width="0.5"/>
<defs>
<clipPath id="clip0_1114_52161">
<rect width="16" height="16" fill="white" transform="translate(6 6)"/>
</clipPath>
</defs>
</svg>
