<svg width="141" height="32" viewBox="0 0 141 32" fill="none" xmlns="http://www.w3.org/2000/svg">
<rect width="141" height="32" rx="4" fill="#F97316"/>
<g clip-path="url(#clip0_80_14057)">
<path d="M27.8045 18.8828C27.6795 18.7578 27.5099 18.6876 27.3331 18.6876C27.1564 18.6876 26.9868 18.7578 26.8618 18.8828L23.1105 22.6348L21.3185 20.8661C21.1947 20.7392 21.0256 20.6667 20.8484 20.6645C20.6712 20.6623 20.5003 20.7307 20.3735 20.8544C20.2466 20.9782 20.1741 21.1473 20.1719 21.3245C20.1697 21.5017 20.238 21.6726 20.3618 21.7994L22.1911 23.5994C22.3059 23.7231 22.4445 23.8223 22.5986 23.8911C22.7527 23.9598 22.9191 23.9967 23.0878 23.9994H23.1098C23.2752 24 23.439 23.9677 23.5918 23.9044C23.7446 23.8411 23.8833 23.7481 23.9998 23.6308L27.8045 19.8254C27.9295 19.7004 27.9997 19.5309 27.9997 19.3541C27.9997 19.1773 27.9295 19.0078 27.8045 18.8828Z" fill="white"/>
<path d="M19.3933 22.6387C18.106 22.5211 16.8807 22.0317 15.8665 21.2302C14.8523 20.4287 14.093 19.3497 13.681 18.1244C13.269 16.8991 13.2221 15.5805 13.546 14.3291C13.87 13.0777 14.5507 11.9474 15.5054 11.0759C16.4602 10.2044 17.6476 9.62929 18.9234 9.42053C20.1991 9.21177 21.5079 9.37839 22.6906 9.9001C23.8734 10.4218 24.8789 11.2761 25.5848 12.359C26.2907 13.4419 26.6666 14.7067 26.6667 15.9994C26.6667 16.204 26.6567 16.4067 26.6393 16.6067C26.6312 16.6941 26.6404 16.7823 26.6664 16.8661C26.6924 16.95 26.7347 17.0278 26.7909 17.0953C26.847 17.1628 26.916 17.2185 26.9938 17.2592C27.0715 17.2999 27.1566 17.3249 27.244 17.3327C27.3314 17.3415 27.4196 17.3327 27.5036 17.3069C27.5875 17.2812 27.6655 17.2389 27.7329 17.1825C27.8003 17.1262 27.8557 17.057 27.896 16.9789C27.9362 16.9009 27.9605 16.8156 27.9673 16.728C27.9887 16.486 28 16.244 28 15.9994C27.9999 14.4481 27.5488 12.9303 26.7017 11.6308C25.8545 10.3313 24.6478 9.30614 23.2285 8.68012C21.8091 8.0541 20.2384 7.85424 18.7075 8.10486C17.1766 8.35548 15.7516 9.04578 14.606 10.0917C13.4604 11.1376 12.6436 12.4941 12.255 13.9959C11.8665 15.4977 11.9229 17.0801 12.4175 18.5504C12.9121 20.0207 13.8235 21.3155 15.0407 22.2771C16.2579 23.2388 17.7285 23.8258 19.2733 23.9667H19.334C19.5108 23.9746 19.6835 23.9119 19.8141 23.7924C19.9447 23.6729 20.0225 23.5065 20.0303 23.3297C20.0382 23.1529 19.9755 22.9802 19.856 22.8496C19.7366 22.719 19.5701 22.6412 19.3933 22.6334V22.6387Z" fill="white"/>
<path d="M19.3334 12.6667V15.724L17.5287 17.5287C17.465 17.5902 17.4143 17.6637 17.3793 17.7451C17.3444 17.8264 17.326 17.9139 17.3252 18.0024C17.3245 18.0909 17.3413 18.1787 17.3748 18.2606C17.4084 18.3426 17.4579 18.417 17.5205 18.4796C17.5831 18.5422 17.6575 18.5917 17.7394 18.6252C17.8213 18.6587 17.9091 18.6756 17.9977 18.6748C18.0862 18.6741 18.1737 18.6557 18.255 18.6207C18.3363 18.5858 18.4099 18.535 18.4714 18.4713L20.4714 16.4713C20.5964 16.3463 20.6667 16.1768 20.6667 16V12.6667C20.6667 12.4899 20.5965 12.3203 20.4714 12.1953C20.3464 12.0702 20.1769 12 20 12C19.8232 12 19.6537 12.0702 19.5286 12.1953C19.4036 12.3203 19.3334 12.4899 19.3334 12.6667Z" fill="white"/>
</g>
<path d="M44.1932 14C44.0838 13.6652 43.9396 13.3653 43.7607 13.1001C43.585 12.8317 43.3745 12.603 43.1293 12.4141C42.8873 12.2251 42.6122 12.081 42.304 11.9815C41.9957 11.8821 41.6577 11.8324 41.2898 11.8324C40.6866 11.8324 40.138 11.9882 39.6442 12.2997C39.1503 12.6113 38.7576 13.0703 38.4659 13.6768C38.1742 14.2834 38.0284 15.0275 38.0284 15.9091C38.0284 16.7907 38.1759 17.5348 38.4709 18.1413C38.7659 18.7479 39.1652 19.2069 39.669 19.5185C40.1728 19.83 40.7396 19.9858 41.3693 19.9858C41.9527 19.9858 42.4664 19.8615 42.9105 19.6129C43.358 19.361 43.706 19.0064 43.9545 18.549C44.2064 18.0883 44.3324 17.5464 44.3324 16.9233L44.7102 17.0028H41.6477V15.9091H45.5256V17.0028C45.5256 17.8414 45.3466 18.5705 44.9886 19.1903C44.634 19.8101 44.1435 20.2907 43.517 20.6321C42.8939 20.9702 42.178 21.1392 41.3693 21.1392C40.4678 21.1392 39.6757 20.9271 38.9929 20.5028C38.3134 20.0786 37.7831 19.4754 37.402 18.6932C37.0241 17.911 36.8352 16.983 36.8352 15.9091C36.8352 15.1037 36.9429 14.3795 37.1584 13.7365C37.3771 13.0902 37.6854 12.54 38.0831 12.0859C38.4808 11.6319 38.9515 11.2839 39.495 11.0419C40.0386 10.8 40.6368 10.679 41.2898 10.679C41.8267 10.679 42.3272 10.7602 42.7912 10.9226C43.2585 11.0817 43.6745 11.3087 44.0391 11.6037C44.407 11.8954 44.7135 12.245 44.9588 12.6527C45.2041 13.0571 45.3731 13.5062 45.4659 14H44.1932ZM54.3588 13.0256H55.3929C55.3929 13.5294 55.3266 13.9519 55.1941 14.2933C55.0615 14.6314 54.8295 14.8866 54.498 15.0589C54.1666 15.228 53.7026 15.3125 53.106 15.3125V14.4972C53.517 14.4972 53.8087 14.4474 53.981 14.348C54.1567 14.2453 54.2627 14.0862 54.2992 13.8707C54.339 13.652 54.3588 13.3703 54.3588 13.0256ZM52.2907 17.8778V13.3636H53.464V21H52.2907V19.7074H52.2111C52.0321 20.0952 51.7537 20.425 51.3759 20.6967C50.998 20.9652 50.5208 21.0994 49.9441 21.0994C49.4668 21.0994 49.0426 20.995 48.6713 20.7862C48.3001 20.5741 48.0085 20.2559 47.7963 19.8317C47.5842 19.4041 47.4782 18.8655 47.4782 18.2159V13.3636H48.6515V18.1364C48.6515 18.6932 48.8072 19.1373 49.1188 19.4688C49.4337 19.8002 49.8347 19.9659 50.3219 19.9659C50.6136 19.9659 50.9102 19.8913 51.2118 19.7422C51.5167 19.593 51.772 19.3643 51.9775 19.0561C52.1863 18.7479 52.2907 18.3551 52.2907 17.8778ZM50.998 12.3295H50.0236V11.2557C50.3716 11.2358 50.6169 11.1877 50.7594 11.1115C50.9052 11.0353 50.9782 10.9176 50.9782 10.7585C50.9782 10.5795 50.8738 10.4486 50.665 10.3658C50.4561 10.2829 50.2026 10.2415 49.9043 10.2415L49.9441 9.4858C50.6301 9.4858 51.1489 9.60511 51.5002 9.84375C51.8548 10.0824 52.0321 10.4006 52.0321 10.7983C52.0321 11.1364 51.9244 11.3833 51.709 11.5391C51.4935 11.6948 51.2566 11.7926 50.998 11.8324V12.3295ZM56.1871 21V13.3636H57.3604V21H56.1871ZM56.7837 12.0909C56.555 12.0909 56.3578 12.013 56.1921 11.8572C56.0297 11.7015 55.9485 11.5142 55.9485 11.2955C55.9485 11.0767 56.0297 10.8894 56.1921 10.7337C56.3578 10.5779 56.555 10.5 56.7837 10.5C57.0124 10.5 57.208 10.5779 57.3704 10.7337C57.5361 10.8894 57.619 11.0767 57.619 11.2955C57.619 11.5142 57.5361 11.7015 57.3704 11.8572C57.208 12.013 57.0124 12.0909 56.7837 12.0909ZM66.7679 13.3636V14.358H62.8105V13.3636H66.7679ZM63.964 11.5341H65.1373V18.8125C65.1373 19.1439 65.1853 19.3925 65.2814 19.5582C65.3809 19.7206 65.5068 19.83 65.6593 19.8864C65.815 19.9394 65.9791 19.9659 66.1515 19.9659C66.2807 19.9659 66.3868 19.9593 66.4696 19.946C66.5525 19.9295 66.6188 19.9162 66.6685 19.9062L66.9071 20.9602C66.8276 20.9901 66.7166 21.0199 66.574 21.0497C66.4315 21.0829 66.2509 21.0994 66.0321 21.0994C65.7007 21.0994 65.3759 21.0282 65.0577 20.8857C64.7428 20.7431 64.481 20.526 64.2722 20.2344C64.0667 19.9427 63.964 19.5748 63.964 19.1307V11.5341ZM69.8702 16.4062V21H68.6969V10.8182H69.8702V14.5568H69.9696C70.1486 14.1624 70.4171 13.8492 70.775 13.6172C71.1363 13.3819 71.6169 13.2642 72.2168 13.2642C72.7372 13.2642 73.1929 13.3686 73.584 13.5774C73.9751 13.7829 74.2784 14.0994 74.4938 14.527C74.7125 14.9512 74.8219 15.4915 74.8219 16.1477V21H73.6486V16.2273C73.6486 15.6207 73.4912 15.1518 73.1763 14.8203C72.8648 14.4856 72.4322 14.3182 71.8787 14.3182C71.4943 14.3182 71.1496 14.3994 70.8446 14.5618C70.543 14.7242 70.3044 14.9612 70.1287 15.2727C69.9564 15.5843 69.8702 15.9621 69.8702 16.4062ZM79.2156 21.179C78.7317 21.179 78.2925 21.0878 77.8981 20.9055C77.5037 20.7199 77.1905 20.4531 76.9585 20.1051C76.7264 19.7538 76.6104 19.3295 76.6104 18.8324C76.6104 18.3949 76.6966 18.0402 76.869 17.7685C77.0413 17.4934 77.2717 17.2779 77.56 17.1222C77.8484 16.9664 78.1665 16.8504 78.5146 16.7741C78.8659 16.6946 79.2189 16.6316 79.5735 16.5852C80.0375 16.5256 80.4137 16.4808 80.7021 16.451C80.9937 16.4179 81.2058 16.3632 81.3384 16.2869C81.4743 16.2107 81.5423 16.0781 81.5423 15.8892V15.8494C81.5423 15.3589 81.408 14.9777 81.1396 14.706C80.8744 14.4342 80.4717 14.2983 79.9315 14.2983C79.3713 14.2983 78.9322 14.4209 78.614 14.6662C78.2958 14.9115 78.0721 15.1733 77.9428 15.4517L76.8292 15.054C77.0281 14.59 77.2932 14.2287 77.6246 13.9702C77.9594 13.7083 78.324 13.526 78.7184 13.4233C79.1161 13.3172 79.5072 13.2642 79.8917 13.2642C80.137 13.2642 80.4187 13.294 80.7369 13.3537C81.0584 13.41 81.3683 13.5277 81.6665 13.7067C81.9682 13.8857 82.2184 14.1558 82.4173 14.517C82.6161 14.8783 82.7156 15.3622 82.7156 15.9688V21H81.5423V19.9659H81.4826C81.4031 20.1316 81.2705 20.3089 81.0849 20.4979C80.8993 20.6868 80.6523 20.8475 80.3441 20.9801C80.0359 21.1127 79.6597 21.179 79.2156 21.179ZM79.3945 20.125C79.8585 20.125 80.2496 20.0339 80.5678 19.8516C80.8893 19.6693 81.1313 19.4339 81.2937 19.1456C81.4594 18.8572 81.5423 18.554 81.5423 18.2358V17.1619C81.4925 17.2216 81.3832 17.2763 81.2141 17.326C81.0484 17.3724 80.8562 17.4138 80.6374 17.4503C80.422 17.4834 80.2115 17.5133 80.006 17.5398C79.8039 17.563 79.6398 17.5829 79.5138 17.5994C79.2089 17.6392 78.9239 17.7038 78.6587 17.7933C78.3969 17.8795 78.1848 18.0104 78.0224 18.1861C77.8633 18.3584 77.7837 18.5937 77.7837 18.892C77.7837 19.2997 77.9345 19.608 78.2362 19.8168C78.5411 20.0223 78.9272 20.125 79.3945 20.125ZM80.6474 10.7386L82.5366 12.5483H81.3036L79.9513 11.2955L78.619 12.5483H77.386L79.2752 10.7386H80.6474ZM82.7354 11.5938H81.9002V10.679C82.1786 10.6591 82.3841 10.6226 82.5167 10.5696C82.6493 10.5133 82.7156 10.4105 82.7156 10.2614C82.7156 10.1023 82.6261 9.98958 82.4471 9.9233C82.2714 9.85701 82.0494 9.82386 81.7809 9.82386L81.8207 9.16761C82.4173 9.16761 82.868 9.2687 83.1729 9.47088C83.4779 9.67306 83.6303 9.94318 83.6303 10.2812C83.6303 10.5795 83.5375 10.7966 83.3519 10.9325C83.1696 11.0651 82.9641 11.1463 82.7354 11.1761V11.5938ZM84.8571 21V13.3636H85.9906V14.5568H86.09C86.2491 14.1491 86.506 13.8326 86.8606 13.6072C87.2153 13.3786 87.6412 13.2642 88.1383 13.2642C88.6421 13.2642 89.0614 13.3786 89.3961 13.6072C89.7342 13.8326 89.9977 14.1491 90.1866 14.5568H90.2662C90.4617 14.1624 90.755 13.8492 91.1461 13.6172C91.5372 13.3819 92.0062 13.2642 92.5531 13.2642C93.2359 13.2642 93.7943 13.478 94.2285 13.9055C94.6627 14.3298 94.8798 14.991 94.8798 15.8892V21H93.7065V15.8892C93.7065 15.3258 93.5524 14.9231 93.2441 14.6811C92.9359 14.4392 92.573 14.3182 92.1554 14.3182C91.6184 14.3182 91.2025 14.4806 90.9075 14.8054C90.6125 15.1269 90.465 15.5346 90.465 16.0284V21H89.2718V15.7699C89.2718 15.3357 89.131 14.986 88.8493 14.7209C88.5675 14.4524 88.2046 14.3182 87.7605 14.3182C87.4556 14.3182 87.1705 14.3994 86.9054 14.5618C86.6435 14.7242 86.4314 14.9496 86.269 15.2379C86.1099 15.523 86.0304 15.8527 86.0304 16.2273V21H84.8571ZM103.846 21.1591C103.21 21.1591 102.648 20.9983 102.161 20.6768C101.673 20.352 101.292 19.8946 101.017 19.3047C100.742 18.7114 100.605 18.0104 100.605 17.2017C100.605 16.3996 100.742 15.7036 101.017 15.1136C101.292 14.5237 101.675 14.0679 102.166 13.7464C102.656 13.425 103.223 13.2642 103.866 13.2642C104.363 13.2642 104.756 13.3471 105.044 13.5128C105.336 13.6752 105.558 13.8608 105.71 14.0696C105.866 14.2751 105.987 14.4441 106.073 14.5767H106.173V10.8182H107.346V21H106.213V19.8267H106.073C105.987 19.9659 105.865 20.1416 105.705 20.3537C105.546 20.5625 105.319 20.7498 105.024 20.9155C104.729 21.0779 104.337 21.1591 103.846 21.1591ZM104.005 20.1051C104.476 20.1051 104.874 19.9825 105.198 19.7372C105.523 19.4886 105.77 19.1456 105.939 18.7081C106.108 18.2673 106.193 17.7585 106.193 17.1818C106.193 16.6117 106.11 16.1129 105.944 15.6854C105.778 15.2545 105.533 14.9197 105.208 14.6811C104.883 14.4392 104.482 14.3182 104.005 14.3182C103.508 14.3182 103.094 14.4458 102.762 14.701C102.434 14.9529 102.187 15.2959 102.021 15.7301C101.859 16.161 101.778 16.6449 101.778 17.1818C101.778 17.7254 101.861 18.2192 102.026 18.6634C102.195 19.1042 102.444 19.4555 102.772 19.7173C103.104 19.9759 103.515 20.1051 104.005 20.1051ZM104.065 12.7074V11.7926H108.44V12.7074H104.065ZM110.136 21V13.3636H111.31V21H110.136ZM110.733 12.0909C110.504 12.0909 110.307 12.013 110.141 11.8572C109.979 11.7015 109.898 11.5142 109.898 11.2955C109.898 11.0767 109.979 10.8894 110.141 10.7337C110.307 10.5779 110.504 10.5 110.733 10.5C110.962 10.5 111.157 10.5779 111.32 10.7337C111.485 10.8894 111.568 11.0767 111.568 11.2955C111.568 11.5142 111.485 11.7015 111.32 11.8572C111.157 12.013 110.962 12.0909 110.733 12.0909ZM110.733 23.5256C110.504 23.5256 110.307 23.4477 110.141 23.2919C109.979 23.1361 109.898 22.9489 109.898 22.7301C109.898 22.5114 109.979 22.3241 110.141 22.1683C110.307 22.0125 110.504 21.9347 110.733 21.9347C110.962 21.9347 111.157 22.0125 111.32 22.1683C111.485 22.3241 111.568 22.5114 111.568 22.7301C111.568 22.9489 111.485 23.1361 111.32 23.2919C111.157 23.4477 110.962 23.5256 110.733 23.5256ZM114.632 16.4062V21H113.459V13.3636H114.592V14.5568H114.692C114.871 14.169 115.142 13.8575 115.507 13.6222C115.872 13.3835 116.342 13.2642 116.919 13.2642C117.436 13.2642 117.888 13.3703 118.276 13.5824C118.664 13.7912 118.965 14.1094 119.181 14.5369C119.396 14.9612 119.504 15.4981 119.504 16.1477V21H118.331V16.2273C118.331 15.6274 118.175 15.16 117.863 14.8253C117.552 14.4872 117.124 14.3182 116.581 14.3182C116.206 14.3182 115.872 14.3994 115.577 14.5618C115.285 14.7242 115.055 14.9612 114.885 15.2727C114.716 15.5843 114.632 15.9621 114.632 16.4062ZM122.821 16.4062V21H121.648V10.8182H122.821V14.5568H122.921C123.1 14.1624 123.368 13.8492 123.726 13.6172C124.087 13.3819 124.568 13.2642 125.168 13.2642C125.688 13.2642 126.144 13.3686 126.535 13.5774C126.926 13.7829 127.23 14.0994 127.445 14.527C127.664 14.9512 127.773 15.4915 127.773 16.1477V21H126.6V16.2273C126.6 15.6207 126.442 15.1518 126.127 14.8203C125.816 14.4856 125.383 14.3182 124.83 14.3182C124.445 14.3182 124.101 14.3994 123.796 14.5618C123.494 14.7242 123.256 14.9612 123.08 15.2727C122.908 15.5843 122.821 15.9621 122.821 16.4062Z" fill="white"/>
<defs>
<clipPath id="clip0_80_14057">
<rect width="16" height="16" fill="white" transform="translate(12 8)"/>
</clipPath>
</defs>
</svg>
