<svg width="160" height="36" viewBox="0 0 160 36" fill="none" xmlns="http://www.w3.org/2000/svg">
<rect width="160" height="36" rx="4" fill="#438EB9"/>
<g clip-path="url(#clip0_57_11061)">
<path d="M43.8375 11.7187L43.8329 22.0107C43.8329 22.1875 43.9031 22.357 44.0281 22.4821C44.1532 22.6071 44.3227 22.6773 44.4995 22.6773C44.6764 22.6773 44.8459 22.6071 44.971 22.4821C45.096 22.357 45.1662 22.1875 45.1662 22.0107L45.1709 11.73L47.1122 13.672C47.2372 13.797 47.4068 13.8672 47.5835 13.8672C47.7603 13.8672 47.9299 13.797 48.0549 13.672C48.1799 13.547 48.2501 13.3774 48.2501 13.2007C48.2501 13.0239 48.1799 12.8543 48.0549 12.7293L45.9142 10.586C45.7285 10.4001 45.5079 10.2527 45.2652 10.1521C45.0225 10.0515 44.7623 9.99976 44.4995 9.99976C44.2368 9.99976 43.9766 10.0515 43.7339 10.1521C43.4911 10.2527 43.2706 10.4001 43.0849 10.586L40.9442 12.7273C40.8192 12.8523 40.749 13.0219 40.749 13.1987C40.749 13.3754 40.8192 13.545 40.9442 13.67C41.0692 13.795 41.2388 13.8652 41.4155 13.8652C41.5923 13.8652 41.7619 13.795 41.8869 13.67L43.8375 11.7187Z" fill="white"/>
<path d="M51.1667 21.3333V24C51.1667 24.1768 51.0964 24.3464 50.9714 24.4714C50.8464 24.5964 50.6768 24.6667 50.5 24.6667H38.5C38.3232 24.6667 38.1536 24.5964 38.0286 24.4714C37.9036 24.3464 37.8333 24.1768 37.8333 24V21.3333C37.8333 21.1565 37.7631 20.987 37.6381 20.8619C37.513 20.7369 37.3435 20.6667 37.1667 20.6667C36.9899 20.6667 36.8203 20.7369 36.6953 20.8619C36.5702 20.987 36.5 21.1565 36.5 21.3333V24C36.5 24.5304 36.7107 25.0391 37.0858 25.4142C37.4609 25.7893 37.9696 26 38.5 26H50.5C51.0304 26 51.5391 25.7893 51.9142 25.4142C52.2893 25.0391 52.5 24.5304 52.5 24V21.3333C52.5 21.1565 52.4298 20.987 52.3047 20.8619C52.1797 20.7369 52.0101 20.6667 51.8333 20.6667C51.6565 20.6667 51.487 20.7369 51.3619 20.8619C51.2369 20.987 51.1667 21.1565 51.1667 21.3333Z" fill="white"/>
</g>
<path d="M57.4125 13.9119V12.8182H65.0488V13.9119H61.8471V23H60.6142V13.9119H57.4125ZM68.0007 23.179C67.5168 23.179 67.0777 23.0878 66.6832 22.9055C66.2888 22.7199 65.9756 22.4531 65.7436 22.1051C65.5116 21.7538 65.3956 21.3295 65.3956 20.8324C65.3956 20.3949 65.4818 20.0402 65.6541 19.7685C65.8265 19.4934 66.0568 19.2779 66.3452 19.1222C66.6335 18.9664 66.9517 18.8504 67.2997 18.7741C67.651 18.6946 68.004 18.6316 68.3587 18.5852C68.8227 18.5256 69.1989 18.4808 69.4872 18.451C69.7789 18.4179 69.991 18.3632 70.1236 18.2869C70.2595 18.2107 70.3274 18.0781 70.3274 17.8892V17.8494C70.3274 17.3589 70.1932 16.9777 69.9247 16.706C69.6596 16.4342 69.2569 16.2983 68.7166 16.2983C68.1565 16.2983 67.7173 16.4209 67.3991 16.6662C67.081 16.9115 66.8572 17.1733 66.728 17.4517L65.6143 17.054C65.8132 16.59 66.0784 16.2287 66.4098 15.9702C66.7446 15.7083 67.1091 15.526 67.5036 15.4233C67.9013 15.3172 68.2924 15.2642 68.6768 15.2642C68.9221 15.2642 69.2038 15.294 69.522 15.3537C69.8435 15.41 70.1534 15.5277 70.4517 15.7067C70.7533 15.8857 71.0036 16.1558 71.2024 16.517C71.4013 16.8783 71.5007 17.3622 71.5007 17.9688V23H70.3274V21.9659H70.2678C70.1882 22.1316 70.0556 22.3089 69.87 22.4979C69.6844 22.6868 69.4375 22.8475 69.1293 22.9801C68.821 23.1127 68.4448 23.179 68.0007 23.179ZM68.1797 22.125C68.6437 22.125 69.0348 22.0339 69.353 21.8516C69.6745 21.6693 69.9164 21.4339 70.0788 21.1456C70.2446 20.8572 70.3274 20.554 70.3274 20.2358V19.1619C70.2777 19.2216 70.1683 19.2763 69.9993 19.326C69.8336 19.3724 69.6413 19.4138 69.4226 19.4503C69.2071 19.4834 68.9967 19.5133 68.7912 19.5398C68.589 19.563 68.425 19.5829 68.299 19.5994C67.9941 19.6392 67.709 19.7038 67.4439 19.7933C67.1821 19.8795 66.9699 20.0104 66.8075 20.1861C66.6484 20.3584 66.5689 20.5937 66.5689 20.892C66.5689 21.2997 66.7197 21.608 67.0213 21.8168C67.3262 22.0223 67.7124 22.125 68.1797 22.125ZM69.2734 14.3295H68.299V13.2557C68.647 13.2358 68.8923 13.1877 69.0348 13.1115C69.1806 13.0353 69.2536 12.9176 69.2536 12.7585C69.2536 12.5795 69.1491 12.4486 68.9403 12.3658C68.7315 12.2829 68.478 12.2415 68.1797 12.2415L68.2195 11.4858C68.9055 11.4858 69.4242 11.6051 69.7756 11.8438C70.1302 12.0824 70.3075 12.4006 70.3075 12.7983C70.3075 13.1364 70.1998 13.3833 69.9844 13.5391C69.7689 13.6948 69.532 13.7926 69.2734 13.8324V14.3295ZM73.6422 23V15.3636H74.8155V23H73.6422ZM74.2388 14.0909C74.0101 14.0909 73.8129 14.013 73.6472 13.8572C73.4848 13.7015 73.4036 13.5142 73.4036 13.2955C73.4036 13.0767 73.4848 12.8894 73.6472 12.7337C73.8129 12.5779 74.0101 12.5 74.2388 12.5C74.4675 12.5 74.6631 12.5779 74.8255 12.7337C74.9912 12.8894 75.074 13.0767 75.074 13.2955C75.074 13.5142 74.9912 13.7015 74.8255 13.8572C74.6631 14.013 74.4675 14.0909 74.2388 14.0909ZM82.0753 12.8182V23H80.902V12.8182H82.0753ZM87.426 23.1591C86.6902 23.1591 86.0555 22.9967 85.5218 22.6719C84.9915 22.3438 84.5822 21.8864 84.2939 21.2997C84.0088 20.7098 83.8663 20.0237 83.8663 19.2415C83.8663 18.4593 84.0088 17.7699 84.2939 17.1733C84.5822 16.5734 84.9833 16.1061 85.497 15.7713C86.014 15.4332 86.6172 15.2642 87.3066 15.2642C87.7044 15.2642 88.0971 15.3305 88.4849 15.4631C88.8727 15.5956 89.2257 15.8111 89.5439 16.1094C89.862 16.4044 90.1156 16.7955 90.3045 17.2827C90.4934 17.7699 90.5879 18.3698 90.5879 19.0824V19.5795H84.7015V18.5653H89.3947C89.3947 18.1345 89.3085 17.75 89.1362 17.4119C88.9672 17.0739 88.7252 16.8071 88.4103 16.6115C88.0988 16.416 87.7309 16.3182 87.3066 16.3182C86.8393 16.3182 86.435 16.4342 86.0936 16.6662C85.7555 16.8949 85.4953 17.1932 85.313 17.5611C85.1307 17.929 85.0396 18.3234 85.0396 18.7443V19.4205C85.0396 19.9972 85.139 20.486 85.3379 20.8871C85.5401 21.2848 85.8201 21.5881 86.1781 21.7969C86.536 22.0024 86.952 22.1051 87.426 22.1051C87.7342 22.1051 88.0126 22.062 88.2612 21.9759C88.5131 21.8864 88.7302 21.7538 88.9125 21.5781C89.0948 21.3991 89.2356 21.1771 89.335 20.9119L90.4686 21.2301C90.3493 21.6146 90.1487 21.9527 89.867 22.2443C89.5853 22.5327 89.2373 22.758 88.823 22.9205C88.4087 23.0795 87.943 23.1591 87.426 23.1591ZM88.2811 14.4489L87.247 13.0568L86.2129 14.4489H85.0993V14.3693L86.71 12.3011H87.7839L89.3947 14.3693V14.4489H88.2811ZM93.546 18.4062V23H92.3727V15.3636H93.5062V16.5568H93.6056C93.7846 16.169 94.0564 15.8575 94.421 15.6222C94.7856 15.3835 95.2562 15.2642 95.8329 15.2642C96.35 15.2642 96.8024 15.3703 97.1902 15.5824C97.5779 15.7912 97.8796 16.1094 98.095 16.5369C98.3104 16.9612 98.4181 17.4981 98.4181 18.1477V23H97.2449V18.2273C97.2449 17.6274 97.0891 17.16 96.7775 16.8253C96.466 16.4872 96.0384 16.3182 95.4949 16.3182C95.1203 16.3182 94.7856 16.3994 94.4906 16.5618C94.1989 16.7242 93.9686 16.9612 93.7995 17.2727C93.6305 17.5843 93.546 17.9621 93.546 18.4062ZM107.9 15.3636V16.358H103.784V15.3636H107.9ZM105.017 23V14.3097C105.017 13.8722 105.119 13.5076 105.325 13.2159C105.53 12.9242 105.797 12.7055 106.125 12.5597C106.453 12.4138 106.8 12.3409 107.164 12.3409C107.453 12.3409 107.688 12.3641 107.87 12.4105C108.053 12.4569 108.189 12.5 108.278 12.5398L107.94 13.554C107.88 13.5341 107.797 13.5092 107.691 13.4794C107.589 13.4496 107.453 13.4347 107.284 13.4347C106.896 13.4347 106.616 13.5324 106.444 13.728C106.275 13.9235 106.19 14.2102 106.19 14.5881V23H105.017ZM109.545 23V15.3636H110.718V23H109.545ZM110.141 14.0909C109.912 14.0909 109.715 14.013 109.55 13.8572C109.387 13.7015 109.306 13.5142 109.306 13.2955C109.306 13.0767 109.387 12.8894 109.55 12.7337C109.715 12.5779 109.912 12.5 110.141 12.5C110.37 12.5 110.565 12.5779 110.728 12.7337C110.894 12.8894 110.976 13.0767 110.976 13.2955C110.976 13.5142 110.894 13.7015 110.728 13.8572C110.565 14.013 110.37 14.0909 110.141 14.0909ZM114.04 12.8182V23H112.867V12.8182H114.04ZM119.391 23.1591C118.655 23.1591 118.02 22.9967 117.487 22.6719C116.956 22.3438 116.547 21.8864 116.259 21.2997C115.974 20.7098 115.831 20.0237 115.831 19.2415C115.831 18.4593 115.974 17.7699 116.259 17.1733C116.547 16.5734 116.948 16.1061 117.462 15.7713C117.979 15.4332 118.582 15.2642 119.271 15.2642C119.669 15.2642 120.062 15.3305 120.45 15.4631C120.838 15.5956 121.191 15.8111 121.509 16.1094C121.827 16.4044 122.08 16.7955 122.269 17.2827C122.458 17.7699 122.553 18.3698 122.553 19.0824V19.5795H116.666V18.5653H121.36C121.36 18.1345 121.273 17.75 121.101 17.4119C120.932 17.0739 120.69 16.8071 120.375 16.6115C120.064 16.416 119.696 16.3182 119.271 16.3182C118.804 16.3182 118.4 16.4342 118.058 16.6662C117.72 16.8949 117.46 17.1932 117.278 17.5611C117.096 17.929 117.004 18.3234 117.004 18.7443V19.4205C117.004 19.9972 117.104 20.486 117.303 20.8871C117.505 21.2848 117.785 21.5881 118.143 21.7969C118.501 22.0024 118.917 22.1051 119.391 22.1051C119.699 22.1051 119.977 22.062 120.226 21.9759C120.478 21.8864 120.695 21.7538 120.877 21.5781C121.06 21.3991 121.2 21.1771 121.3 20.9119L122.433 21.2301C122.314 21.6146 122.114 21.9527 121.832 22.2443C121.55 22.5327 121.202 22.758 120.788 22.9205C120.374 23.0795 119.908 23.1591 119.391 23.1591Z" fill="white"/>
<defs>
<clipPath id="clip0_57_11061">
<rect width="16" height="16" fill="white" transform="translate(36.5 10)"/>
</clipPath>
</defs>
</svg>
