<svg width="40" height="40" viewBox="0 0 40 40" fill="none" xmlns="http://www.w3.org/2000/svg">
<rect x="0.000244141" width="39.9998" height="39.9998" rx="4.99997" fill="#DBEAFE"/>
<path d="M28.7005 26.3153C28.2268 25.1933 27.5394 24.1741 26.6765 23.3145C25.8163 22.4525 24.7973 21.7651 23.6757 21.2905C23.6657 21.2855 23.6556 21.283 23.6456 21.278C25.21 20.148 26.227 18.3073 26.227 16.2306C26.227 12.7903 23.4397 10.0029 19.9994 10.0029C16.5591 10.0029 13.7718 12.7903 13.7718 16.2306C13.7718 18.3073 14.7888 20.148 16.3532 21.2805C16.3432 21.2855 16.3331 21.288 16.3231 21.293C15.1981 21.7676 14.1886 22.4482 13.3223 23.317C12.4602 24.1773 11.7729 25.1963 11.2983 26.3178C10.832 27.4158 10.5806 28.5931 10.5575 29.7857C10.5568 29.8125 10.5615 29.8392 10.5713 29.8642C10.5811 29.8891 10.5958 29.9119 10.6145 29.931C10.6333 29.9502 10.6556 29.9655 10.6803 29.9759C10.705 29.9863 10.7316 29.9917 10.7584 29.9916H12.2651C12.3756 29.9916 12.4635 29.9038 12.466 29.7958C12.5162 27.8572 13.2946 26.0416 14.6708 24.6655C16.0946 23.2417 17.9855 22.4582 19.9994 22.4582C22.0133 22.4582 23.9042 23.2417 25.3281 24.6655C26.7042 26.0416 27.4826 27.8572 27.5328 29.7958C27.5353 29.9063 27.6232 29.9916 27.7337 29.9916H29.2404C29.2672 29.9917 29.2938 29.9863 29.3185 29.9759C29.3432 29.9655 29.3656 29.9502 29.3843 29.931C29.403 29.9119 29.4177 29.8891 29.4275 29.8642C29.4373 29.8392 29.442 29.8125 29.4413 29.7857C29.4162 28.5854 29.1676 27.4177 28.7005 26.3153ZM19.9994 20.5497C18.8468 20.5497 17.762 20.1002 16.9458 19.2841C16.1297 18.468 15.6802 17.3832 15.6802 16.2306C15.6802 15.078 16.1297 13.9931 16.9458 13.177C17.762 12.3609 18.8468 11.9114 19.9994 11.9114C21.152 11.9114 22.2368 12.3609 23.053 13.177C23.8691 13.9931 24.3186 15.078 24.3186 16.2306C24.3186 17.3832 23.8691 18.468 23.053 19.2841C22.2368 20.1002 21.152 20.5497 19.9994 20.5497Z" fill="#3B82F6"/>
</svg>
