<svg width="24" height="24" viewBox="0 0 24 24" fill="none" xmlns="http://www.w3.org/2000/svg">
<rect width="24" height="24" rx="12" fill="#EBEBEB"/>
<g clip-path="url(#clip0_376_13538)">
<path d="M19 12C19 12.1547 18.9385 12.3031 18.8291 12.4125C18.7197 12.5219 18.5714 12.5833 18.4167 12.5833C18.262 12.5833 18.1136 12.5219 18.0042 12.4125C17.8948 12.3031 17.8333 12.1547 17.8333 12C17.8316 10.4534 17.2165 8.97068 16.1229 7.87709C15.0293 6.78349 13.5466 6.16837 12 6.16667C11.8453 6.16667 11.6969 6.10521 11.5875 5.99581C11.4781 5.88642 11.4167 5.73804 11.4167 5.58333C11.4167 5.42862 11.4781 5.28025 11.5875 5.17085C11.6969 5.06146 11.8453 5 12 5C13.8559 5.00201 15.6352 5.74015 16.9475 7.05247C18.2599 8.36479 18.998 10.1441 19 12ZM14.3333 12.5833C14.488 12.5833 14.6364 12.5219 14.7458 12.4125C14.8552 12.3031 14.9167 12.1547 14.9167 12C14.9167 11.8453 14.8552 11.6969 14.7458 11.5875C14.6364 11.4781 14.488 11.4167 14.3333 11.4167H13.0051C12.9034 11.2419 12.7581 11.0966 12.5833 10.9949V9.08333C12.5833 8.92862 12.5219 8.78025 12.4125 8.67085C12.3031 8.56146 12.1547 8.5 12 8.5C11.8453 8.5 11.6969 8.56146 11.5875 8.67085C11.4781 8.78025 11.4167 8.92862 11.4167 9.08333V10.9949C11.262 11.084 11.1298 11.2075 11.0305 11.3559C10.9312 11.5042 10.8674 11.6734 10.8439 11.8504C10.8205 12.0274 10.8382 12.2074 10.8955 12.3765C10.9529 12.5456 11.0483 12.6992 11.1746 12.8254C11.3008 12.9517 11.4544 13.0471 11.6235 13.1045C11.7926 13.1618 11.9726 13.1795 12.1496 13.1561C12.3266 13.1326 12.4958 13.0688 12.6441 12.9695C12.7925 12.8702 12.916 12.738 13.0051 12.5833H14.3333ZM6.06575 8.95733C5.95038 8.95733 5.8376 8.99155 5.74167 9.05564C5.64574 9.11974 5.57097 9.21084 5.52682 9.31743C5.48267 9.42402 5.47112 9.54131 5.49363 9.65447C5.51613 9.76762 5.57169 9.87156 5.65327 9.95315C5.73485 10.0347 5.83879 10.0903 5.95195 10.1128C6.0651 10.1353 6.18239 10.1237 6.28898 10.0796C6.39557 10.0354 6.48668 9.96068 6.55077 9.86475C6.61487 9.76882 6.64908 9.65604 6.64908 9.54067C6.64908 9.38596 6.58763 9.23758 6.47823 9.12819C6.36883 9.01879 6.22046 8.95733 6.06575 8.95733ZM6.16667 12C6.16667 11.8846 6.13245 11.7718 6.06836 11.6759C6.00426 11.58 5.91316 11.5052 5.80657 11.4611C5.69998 11.4169 5.58269 11.4054 5.46953 11.4279C5.35638 11.4504 5.25244 11.5059 5.17085 11.5875C5.08927 11.6691 5.03372 11.773 5.01121 11.8862C4.9887 11.9994 5.00025 12.1166 5.0444 12.2232C5.08855 12.3298 5.16332 12.4209 5.25925 12.485C5.35518 12.5491 5.46796 12.5833 5.58333 12.5833C5.73804 12.5833 5.88642 12.5219 5.99581 12.4125C6.10521 12.3031 6.16667 12.1547 6.16667 12ZM12 17.8333C11.8846 17.8333 11.7718 17.8675 11.6759 17.9316C11.58 17.9957 11.5052 18.0868 11.4611 18.1934C11.4169 18.3 11.4054 18.4173 11.4279 18.5305C11.4504 18.6436 11.5059 18.7476 11.5875 18.8291C11.6691 18.9107 11.773 18.9663 11.8862 18.9888C11.9994 19.0113 12.1166 18.9997 12.2232 18.9556C12.3298 18.9114 12.4209 18.8367 12.485 18.7407C12.5491 18.6448 12.5833 18.532 12.5833 18.4167C12.5833 18.262 12.5219 18.1136 12.4125 18.0042C12.3031 17.8948 12.1547 17.8333 12 17.8333ZM7.46225 6.87075C7.34688 6.87075 7.2341 6.90496 7.13817 6.96906C7.04224 7.03316 6.96747 7.12426 6.92332 7.23085C6.87917 7.33744 6.86762 7.45473 6.89013 7.56789C6.91263 7.68104 6.96819 7.78498 7.04977 7.86656C7.13135 7.94814 7.23529 8.0037 7.34845 8.02621C7.4616 8.04872 7.57889 8.03716 7.68548 7.99301C7.79207 7.94886 7.88318 7.87409 7.94727 7.77817C8.01137 7.68224 8.04558 7.56946 8.04558 7.45408C8.04558 7.29937 7.98413 7.151 7.87473 7.0416C7.76533 6.93221 7.61696 6.87075 7.46225 6.87075ZM9.53775 5.49058C9.42238 5.49058 9.3096 5.5248 9.21367 5.58889C9.11774 5.65299 9.04297 5.74409 8.99882 5.85068C8.95467 5.95727 8.94312 6.07456 8.96563 6.18772C8.98813 6.30087 9.04369 6.40481 9.12527 6.4864C9.20685 6.56798 9.31079 6.62353 9.42395 6.64604C9.5371 6.66855 9.65439 6.657 9.76098 6.61285C9.86757 6.5687 9.95868 6.49393 10.0228 6.398C10.0869 6.30207 10.1211 6.18929 10.1211 6.07392C10.1211 5.91921 10.0596 5.77083 9.95023 5.66144C9.84083 5.55204 9.69246 5.49058 9.53775 5.49058ZM6.06575 13.876C5.95038 13.876 5.8376 13.9102 5.74167 13.9743C5.64574 14.0384 5.57097 14.1295 5.52682 14.2361C5.48267 14.3427 5.47112 14.46 5.49363 14.5731C5.51613 14.6863 5.57169 14.7902 5.65327 14.8718C5.73485 14.9534 5.83879 15.0089 5.95195 15.0315C6.0651 15.054 6.18239 15.0424 6.28898 14.9983C6.39557 14.9541 6.48668 14.8793 6.55077 14.7834C6.61487 14.6875 6.64908 14.5747 6.64908 14.4593C6.64908 14.3046 6.58763 14.1562 6.47823 14.0469C6.36883 13.9375 6.22046 13.876 6.06575 13.876ZM7.46225 15.9626C7.34688 15.9626 7.2341 15.9968 7.13817 16.0609C7.04224 16.125 6.96747 16.2161 6.92332 16.3227C6.87917 16.4293 6.86762 16.5466 6.89013 16.6597C6.91263 16.7729 6.96819 16.8768 7.04977 16.9584C7.13135 17.04 7.23529 17.0955 7.34845 17.118C7.4616 17.1405 7.57889 17.129 7.68548 17.0848C7.79207 17.0407 7.88318 16.9659 7.94727 16.87C8.01137 16.7741 8.04558 16.6613 8.04558 16.5459C8.04558 16.3912 7.98413 16.2428 7.87473 16.1334C7.76533 16.024 7.61696 15.9626 7.46225 15.9626ZM9.53775 17.3427C9.42238 17.3427 9.3096 17.377 9.21367 17.4411C9.11774 17.5052 9.04297 17.5963 8.99882 17.7029C8.95467 17.8094 8.94312 17.9267 8.96563 18.0399C8.98813 18.153 9.04369 18.257 9.12527 18.3386C9.20685 18.4201 9.31079 18.4757 9.42395 18.4982C9.5371 18.5207 9.65439 18.5092 9.76098 18.465C9.86757 18.4209 9.95868 18.3461 10.0228 18.2502C10.0869 18.1542 10.1211 18.0415 10.1211 17.9261C10.1211 17.7714 10.0596 17.623 9.95023 17.5136C9.84083 17.4042 9.69246 17.3427 9.53775 17.3427ZM17.9342 13.876C17.8189 13.876 17.7061 13.9102 17.6102 13.9743C17.5142 14.0384 17.4395 14.1295 17.3953 14.2361C17.3512 14.3427 17.3396 14.46 17.3621 14.5731C17.3846 14.6863 17.4402 14.7902 17.5218 14.8718C17.6034 14.9534 17.7073 15.0089 17.8204 15.0315C17.9336 15.054 18.0509 15.0424 18.1575 14.9983C18.2641 14.9541 18.3552 14.8793 18.4193 14.7834C18.4834 14.6875 18.5176 14.5747 18.5176 14.4593C18.5176 14.3046 18.4561 14.1562 18.3467 14.0469C18.2373 13.9375 18.089 13.876 17.9342 13.876ZM16.5377 15.9626C16.4224 15.9626 16.3096 15.9968 16.2137 16.0609C16.1177 16.125 16.043 16.2161 15.9988 16.3227C15.9547 16.4293 15.9431 16.5466 15.9656 16.6597C15.9881 16.7729 16.0437 16.8768 16.1253 16.9584C16.2069 17.04 16.3108 17.0955 16.4239 17.118C16.5371 17.1405 16.6544 17.129 16.761 17.0848C16.8676 17.0407 16.9587 16.9659 17.0228 16.87C17.0869 16.7741 17.1211 16.6613 17.1211 16.5459C17.1211 16.3912 17.0596 16.2428 16.9502 16.1334C16.8408 16.024 16.6925 15.9626 16.5377 15.9626ZM14.4622 17.3427C14.3469 17.3427 14.2341 17.377 14.1382 17.4411C14.0422 17.5052 13.9675 17.5963 13.9233 17.7029C13.8792 17.8094 13.8676 17.9267 13.8901 18.0399C13.9126 18.153 13.9682 18.257 14.0498 18.3386C14.1314 18.4201 14.2353 18.4757 14.3484 18.4982C14.4616 18.5207 14.5789 18.5092 14.6855 18.465C14.7921 18.4209 14.8832 18.3461 14.9473 18.2502C15.0114 18.1542 15.0456 18.0415 15.0456 17.9261C15.0456 17.7714 14.9841 17.623 14.8747 17.5136C14.7653 17.4042 14.617 17.3427 14.4622 17.3427Z" fill="#464E5F"/>
</g>
<defs>
<clipPath id="clip0_376_13538">
<rect width="14" height="14" fill="white" transform="translate(5 5)"/>
</clipPath>
</defs>
</svg>
