<svg width="24" height="24" viewBox="0 0 24 24" fill="none" xmlns="http://www.w3.org/2000/svg">
<rect width="24" height="24" rx="12" fill="#EBEBEB"/>
<g clip-path="url(#clip0_218_6939)">
<path d="M18.1454 9.93502C17.8751 9.66378 17.5536 9.44885 17.1997 9.30266C16.8457 9.15648 16.4663 9.08194 16.0833 9.08335H6.63331L9.14165 6.57502C9.25087 6.46533 9.31205 6.31675 9.31172 6.16195C9.31139 6.00715 9.24959 5.85883 9.1399 5.7496C9.03021 5.64038 8.88162 5.5792 8.72683 5.57953C8.57203 5.57986 8.42371 5.64167 8.31448 5.75135L5.42698 8.63827C5.15358 8.91175 5 9.28262 5 9.66931C5 10.056 5.15358 10.4269 5.42698 10.7004L8.31448 13.5884C8.36864 13.6428 8.43297 13.6859 8.50379 13.7153C8.57461 13.7448 8.65054 13.76 8.72724 13.7601C8.80394 13.7602 8.87991 13.7452 8.95082 13.7159C9.02172 13.6867 9.08617 13.6438 9.14048 13.5896C9.19479 13.5354 9.23791 13.4711 9.26736 13.4003C9.29681 13.3295 9.31203 13.2535 9.31213 13.1768C9.31224 13.1001 9.29724 13.0242 9.26799 12.9533C9.23874 12.8824 9.19581 12.8179 9.14165 12.7636L6.62631 10.25H16.0833C16.5474 10.25 16.9926 10.4344 17.3208 10.7626C17.6489 11.0908 17.8333 11.5359 17.8333 12V16.0834C17.8333 16.5475 17.6489 16.9926 17.3208 17.3208C16.9926 17.649 16.5474 17.8334 16.0833 17.8334H7.91665C7.76194 17.8334 7.61356 17.8948 7.50417 18.0042C7.39477 18.1136 7.33331 18.262 7.33331 18.4167C7.33331 18.5714 7.39477 18.7198 7.50417 18.8292C7.61356 18.9386 7.76194 19 7.91665 19H16.0833C16.8566 18.9991 17.5979 18.6915 18.1447 18.1447C18.6915 17.5979 18.9991 16.8566 19 16.0834V12C19.0013 11.6164 18.9264 11.2363 18.7797 10.8818C18.633 10.5274 18.4174 10.2055 18.1454 9.93502Z" fill="#F97316"/>
</g>
<defs>
<clipPath id="clip0_218_6939">
<rect width="14" height="14" fill="white" transform="translate(5 5)"/>
</clipPath>
</defs>
</svg>
