<svg width="140" height="24" viewBox="0 0 140 24" fill="none" xmlns="http://www.w3.org/2000/svg">
<rect width="140" height="24" rx="4" fill="#FEF9C3"/>
<path d="M30.4261 10H29.1932C29.1203 9.64536 28.9927 9.33381 28.8104 9.06534C28.6314 8.79688 28.4126 8.5715 28.1541 8.3892C27.8989 8.2036 27.6155 8.06439 27.304 7.97159C26.9924 7.87879 26.6676 7.83239 26.3295 7.83239C25.7131 7.83239 25.1546 7.98816 24.6541 8.29972C24.157 8.61127 23.7609 9.07031 23.4659 9.67685C23.1742 10.2834 23.0284 11.0275 23.0284 11.9091C23.0284 12.7907 23.1742 13.5348 23.4659 14.1413C23.7609 14.7479 24.157 15.2069 24.6541 15.5185C25.1546 15.83 25.7131 15.9858 26.3295 15.9858C26.6676 15.9858 26.9924 15.9394 27.304 15.8466C27.6155 15.7538 27.8989 15.6162 28.1541 15.4339C28.4126 15.2483 28.6314 15.0213 28.8104 14.7528C28.9927 14.4811 29.1203 14.1695 29.1932 13.8182H30.4261C30.3333 14.3385 30.1643 14.8042 29.919 15.2152C29.6738 15.6262 29.3688 15.9759 29.0043 16.2642C28.6397 16.5492 28.2304 16.7663 27.7763 16.9155C27.3255 17.0646 26.8433 17.1392 26.3295 17.1392C25.4612 17.1392 24.6889 16.9271 24.0128 16.5028C23.3366 16.0786 22.8047 15.4754 22.4169 14.6932C22.0291 13.911 21.8352 12.983 21.8352 11.9091C21.8352 10.8352 22.0291 9.9072 22.4169 9.125C22.8047 8.3428 23.3366 7.73958 24.0128 7.31534C24.6889 6.8911 25.4612 6.67898 26.3295 6.67898C26.8433 6.67898 27.3255 6.75355 27.7763 6.9027C28.2304 7.05185 28.6397 7.2706 29.0043 7.55895C29.3688 7.84399 29.6738 8.192 29.919 8.60298C30.1643 9.01065 30.3333 9.47633 30.4261 10ZM33.4327 12.4062V17H32.2594V6.81818H33.4327V10.5568H33.5321C33.7111 10.1624 33.9796 9.84919 34.3375 9.61719C34.6988 9.38187 35.1794 9.2642 35.7793 9.2642C36.2997 9.2642 36.7554 9.36861 37.1465 9.57741C37.5376 9.78291 37.8409 10.0994 38.0563 10.527C38.275 10.9512 38.3844 11.4915 38.3844 12.1477V17H37.2111V12.2273C37.2111 11.6207 37.0537 11.1518 36.7388 10.8203C36.4273 10.4856 35.9947 10.3182 35.4412 10.3182C35.0568 10.3182 34.7121 10.3994 34.4071 10.5618C34.1055 10.7242 33.8669 10.9612 33.6912 11.2727C33.5189 11.5843 33.4327 11.9621 33.4327 12.4062ZM46.7354 8.78693H47.8292C47.8292 9.54261 47.6635 10.1425 47.332 10.5866C47.0039 11.0308 46.4272 11.2528 45.6019 11.2528V10.4176C45.9334 10.4176 46.1786 10.3497 46.3377 10.2138C46.5001 10.0779 46.6062 9.88731 46.6559 9.64205C46.7089 9.39678 46.7354 9.11174 46.7354 8.78693ZM43.6332 17.1591C42.9438 17.1591 42.3389 16.995 41.8185 16.6669C41.3015 16.3388 40.8971 15.8797 40.6055 15.2898C40.3171 14.6998 40.1729 14.0104 40.1729 13.2216C40.1729 12.4261 40.3171 11.7318 40.6055 11.1385C40.8971 10.5452 41.3015 10.0845 41.8185 9.75639C42.3389 9.42827 42.9438 9.2642 43.6332 9.2642C44.3226 9.2642 44.9258 9.42827 45.4428 9.75639C45.9632 10.0845 46.3675 10.5452 46.6559 11.1385C46.9476 11.7318 47.0934 12.4261 47.0934 13.2216C47.0934 14.0104 46.9476 14.6998 46.6559 15.2898C46.3675 15.8797 45.9632 16.3388 45.4428 16.6669C44.9258 16.995 44.3226 17.1591 43.6332 17.1591ZM43.6332 16.1051C44.1568 16.1051 44.5877 15.9709 44.9258 15.7024C45.2638 15.4339 45.5141 15.081 45.6765 14.6435C45.8389 14.206 45.9201 13.732 45.9201 13.2216C45.9201 12.7112 45.8389 12.2356 45.6765 11.7947C45.5141 11.3539 45.2638 10.9976 44.9258 10.7259C44.5877 10.4541 44.1568 10.3182 43.6332 10.3182C43.1095 10.3182 42.6786 10.4541 42.3406 10.7259C42.0025 10.9976 41.7522 11.3539 41.5898 11.7947C41.4274 12.2356 41.3462 12.7112 41.3462 13.2216C41.3462 13.732 41.4274 14.206 41.5898 14.6435C41.7522 15.081 42.0025 15.4339 42.3406 15.7024C42.6786 15.9709 43.1095 16.1051 43.6332 16.1051ZM43.136 8.32955L41.5849 6.02273H42.957L44.1701 8.32955H43.136ZM56.1566 9.36364V10.358H52.1992V9.36364H56.1566ZM53.3526 7.53409H54.5259V14.8125C54.5259 15.1439 54.574 15.3925 54.6701 15.5582C54.7695 15.7206 54.8955 15.83 55.0479 15.8864C55.2037 15.9394 55.3678 15.9659 55.5401 15.9659C55.6694 15.9659 55.7755 15.9593 55.8583 15.946C55.9412 15.9295 56.0075 15.9162 56.0572 15.9062L56.2958 16.9602C56.2163 16.9901 56.1052 17.0199 55.9627 17.0497C55.8202 17.0829 55.6396 17.0994 55.4208 17.0994C55.0894 17.0994 54.7646 17.0282 54.4464 16.8857C54.1315 16.7431 53.8697 16.526 53.6609 16.2344C53.4554 15.9427 53.3526 15.5748 53.3526 15.1307V7.53409ZM59.2589 12.4062V17H58.0856V6.81818H59.2589V10.5568H59.3583C59.5373 10.1624 59.8058 9.84919 60.1637 9.61719C60.525 9.38187 61.0056 9.2642 61.6055 9.2642C62.1258 9.2642 62.5816 9.36861 62.9727 9.57741C63.3638 9.78291 63.667 10.0994 63.8825 10.527C64.1012 10.9512 64.2106 11.4915 64.2106 12.1477V17H63.0373V12.2273C63.0373 11.6207 62.8799 11.1518 62.565 10.8203C62.2534 10.4856 61.8209 10.3182 61.2674 10.3182C60.8829 10.3182 60.5382 10.3994 60.2333 10.5618C59.9317 10.7242 59.6931 10.9612 59.5174 11.2727C59.3451 11.5843 59.2589 11.9621 59.2589 12.4062ZM68.6042 17.179C68.1203 17.179 67.6812 17.0878 67.2868 16.9055C66.8923 16.7199 66.5791 16.4531 66.3471 16.1051C66.1151 15.7538 65.9991 15.3295 65.9991 14.8324C65.9991 14.3949 66.0853 14.0402 66.2576 13.7685C66.43 13.4934 66.6603 13.2779 66.9487 13.1222C67.237 12.9664 67.5552 12.8504 67.9032 12.7741C68.2546 12.6946 68.6075 12.6316 68.9622 12.5852C69.4262 12.5256 69.8024 12.4808 70.0907 12.451C70.3824 12.4179 70.5945 12.3632 70.7271 12.2869C70.863 12.2107 70.9309 12.0781 70.9309 11.8892V11.8494C70.9309 11.3589 70.7967 10.9777 70.5282 10.706C70.2631 10.4342 69.8604 10.2983 69.3201 10.2983C68.76 10.2983 68.3208 10.4209 68.0027 10.6662C67.6845 10.9115 67.4608 11.1733 67.3315 11.4517L66.2179 11.054C66.4167 10.59 66.6819 10.2287 67.0133 9.97017C67.3481 9.70833 67.7127 9.52604 68.1071 9.4233C68.5048 9.31723 68.8959 9.2642 69.2804 9.2642C69.5256 9.2642 69.8074 9.29403 70.1255 9.35369C70.447 9.41004 70.7569 9.5277 71.0552 9.70668C71.3568 9.88565 71.6071 10.1558 71.8059 10.517C72.0048 10.8783 72.1042 11.3622 72.1042 11.9688V17H70.9309V15.9659H70.8713C70.7917 16.1316 70.6592 16.3089 70.4735 16.4979C70.2879 16.6868 70.041 16.8475 69.7328 16.9801C69.4245 17.1127 69.0484 17.179 68.6042 17.179ZM68.7832 16.125C69.2472 16.125 69.6383 16.0339 69.9565 15.8516C70.278 15.6693 70.5199 15.4339 70.6824 15.1456C70.8481 14.8572 70.9309 14.554 70.9309 14.2358V13.1619C70.8812 13.2216 70.7718 13.2763 70.6028 13.326C70.4371 13.3724 70.2449 13.4138 70.0261 13.4503C69.8107 13.4834 69.6002 13.5133 69.3947 13.5398C69.1925 13.563 69.0285 13.5829 68.9025 13.5994C68.5976 13.6392 68.3126 13.7038 68.0474 13.7933C67.7856 13.8795 67.5734 14.0104 67.411 14.1861C67.252 14.3584 67.1724 14.5937 67.1724 14.892C67.1724 15.2997 67.3232 15.608 67.6248 15.8168C67.9297 16.0223 68.3159 16.125 68.7832 16.125ZM70.036 6.73864L71.9252 8.5483H70.6923L69.34 7.29545L68.0076 8.5483H66.7747L68.6639 6.73864H70.036ZM72.1241 7.59375H71.2889V6.67898C71.5673 6.65909 71.7728 6.62263 71.9054 6.5696C72.0379 6.51326 72.1042 6.41051 72.1042 6.26136C72.1042 6.10227 72.0147 5.98958 71.8358 5.9233C71.6601 5.85701 71.438 5.82386 71.1696 5.82386L71.2093 5.16761C71.8059 5.16761 72.2567 5.2687 72.5616 5.47088C72.8665 5.67306 73.019 5.94318 73.019 6.28125C73.019 6.57955 72.9262 6.79664 72.7406 6.93253C72.5583 7.0651 72.3528 7.14631 72.1241 7.17614V7.59375ZM74.2457 17V9.36364H75.3793V10.5568H75.4787C75.6378 10.1491 75.8946 9.83262 76.2493 9.60724C76.6039 9.37855 77.0298 9.2642 77.527 9.2642C78.0308 9.2642 78.45 9.37855 78.7848 9.60724C79.1229 9.83262 79.3864 10.1491 79.5753 10.5568H79.6548C79.8504 10.1624 80.1437 9.84919 80.5348 9.61719C80.9259 9.38187 81.3949 9.2642 81.9418 9.2642C82.6245 9.2642 83.183 9.47798 83.6172 9.90554C84.0514 10.3298 84.2685 10.991 84.2685 11.8892V17H83.0952V11.8892C83.0952 11.3258 82.9411 10.9231 82.6328 10.6811C82.3246 10.4392 81.9616 10.3182 81.544 10.3182C81.0071 10.3182 80.5911 10.4806 80.2962 10.8054C80.0012 11.1269 79.8537 11.5346 79.8537 12.0284V17H78.6605V11.7699C78.6605 11.3357 78.5196 10.986 78.2379 10.7209C77.9562 10.4524 77.5933 10.3182 77.1491 10.3182C76.8442 10.3182 76.5592 10.3994 76.294 10.5618C76.0322 10.7242 75.8201 10.9496 75.6577 11.2379C75.4986 11.523 75.419 11.8527 75.419 12.2273V17H74.2457ZM93.2347 17.1591C92.5984 17.1591 92.0366 16.9983 91.5494 16.6768C91.0621 16.352 90.681 15.8946 90.4059 15.3047C90.1308 14.7114 89.9933 14.0104 89.9933 13.2017C89.9933 12.3996 90.1308 11.7036 90.4059 11.1136C90.681 10.5237 91.0638 10.0679 91.5543 9.74645C92.0449 9.42495 92.6116 9.2642 93.2546 9.2642C93.7518 9.2642 94.1445 9.34706 94.4329 9.51278C94.7246 9.67519 94.9466 9.8608 95.0991 10.0696C95.2549 10.2751 95.3758 10.4441 95.462 10.5767H95.5614V6.81818H96.7347V17H95.6012V15.8267H95.462C95.3758 15.9659 95.2532 16.1416 95.0941 16.3537C94.935 16.5625 94.708 16.7498 94.413 16.9155C94.118 17.0779 93.7253 17.1591 93.2347 17.1591ZM93.3938 16.1051C93.8645 16.1051 94.2622 15.9825 94.587 15.7372C94.9118 15.4886 95.1587 15.1456 95.3278 14.7081C95.4968 14.2673 95.5813 13.7585 95.5813 13.1818C95.5813 12.6117 95.4985 12.1129 95.3327 11.6854C95.167 11.2545 94.9218 10.9197 94.5969 10.6811C94.2721 10.4392 93.8711 10.3182 93.3938 10.3182C92.8967 10.3182 92.4824 10.4458 92.1509 10.701C91.8228 10.9529 91.5759 11.2959 91.4102 11.7301C91.2478 12.161 91.1665 12.6449 91.1665 13.1818C91.1665 13.7254 91.2494 14.2192 91.4151 14.6634C91.5842 15.1042 91.8327 15.4555 92.1609 15.7173C92.4923 15.9759 92.9033 16.1051 93.3938 16.1051ZM93.4535 8.70739V7.79261H97.8285V8.70739H93.4535ZM99.525 17V9.36364H100.698V17H99.525ZM100.122 8.09091C99.8929 8.09091 99.6957 8.01302 99.53 7.85724C99.3676 7.70147 99.2864 7.5142 99.2864 7.29545C99.2864 7.0767 99.3676 6.88944 99.53 6.73366C99.6957 6.57789 99.8929 6.5 100.122 6.5C100.35 6.5 100.546 6.57789 100.708 6.73366C100.874 6.88944 100.957 7.0767 100.957 7.29545C100.957 7.5142 100.874 7.70147 100.708 7.85724C100.546 8.01302 100.35 8.09091 100.122 8.09091ZM100.122 19.5256C99.8929 19.5256 99.6957 19.4477 99.53 19.2919C99.3676 19.1361 99.2864 18.9489 99.2864 18.7301C99.2864 18.5114 99.3676 18.3241 99.53 18.1683C99.6957 18.0125 99.8929 17.9347 100.122 17.9347C100.35 17.9347 100.546 18.0125 100.708 18.1683C100.874 18.3241 100.957 18.5114 100.957 18.7301C100.957 18.9489 100.874 19.1361 100.708 19.2919C100.546 19.4477 100.35 19.5256 100.122 19.5256ZM104.021 12.4062V17H102.847V9.36364H103.981V10.5568H104.08C104.259 10.169 104.531 9.85748 104.896 9.62216C105.26 9.38352 105.731 9.2642 106.308 9.2642C106.825 9.2642 107.277 9.37027 107.665 9.58239C108.053 9.79119 108.354 10.1094 108.57 10.5369C108.785 10.9612 108.893 11.4981 108.893 12.1477V17H107.719V12.2273C107.719 11.6274 107.564 11.16 107.252 10.8253C106.941 10.4872 106.513 10.3182 105.969 10.3182C105.595 10.3182 105.26 10.3994 104.965 10.5618C104.674 10.7242 104.443 10.9612 104.274 11.2727C104.105 11.5843 104.021 11.9621 104.021 12.4062ZM112.21 12.4062V17H111.037V6.81818H112.21V10.5568H112.309C112.488 10.1624 112.757 9.84919 113.115 9.61719C113.476 9.38187 113.957 9.2642 114.557 9.2642C115.077 9.2642 115.533 9.36861 115.924 9.57741C116.315 9.78291 116.618 10.0994 116.834 10.527C117.052 10.9512 117.162 11.4915 117.162 12.1477V17H115.988V12.2273C115.988 11.6207 115.831 11.1518 115.516 10.8203C115.205 10.4856 114.772 10.3182 114.219 10.3182C113.834 10.3182 113.489 10.3994 113.184 10.5618C112.883 10.7242 112.644 10.9612 112.469 11.2727C112.296 11.5843 112.21 11.9621 112.21 12.4062Z" fill="#EAB308"/>
</svg>
