<svg width="125" height="24" viewBox="0 0 125 24" fill="none" xmlns="http://www.w3.org/2000/svg">
<rect width="125" height="24" rx="4" fill="#FEE2E2"/>
<path d="M38.6761 7.91193V6.81818H46.3125V7.91193H43.1108V17H41.8778V7.91193H38.6761ZM53.8979 9.02557H54.932C54.932 9.52936 54.8657 9.95194 54.7331 10.2933C54.6006 10.6314 54.3685 10.8866 54.0371 11.0589C53.7057 11.228 53.2417 11.3125 52.6451 11.3125V10.4972C53.056 10.4972 53.3477 10.4474 53.5201 10.348C53.6957 10.2453 53.8018 10.0862 53.8382 9.87074C53.878 9.65199 53.8979 9.37026 53.8979 9.02557ZM51.8297 13.8778V9.36364H53.003V17H51.8297V15.7074H51.7502C51.5712 16.0952 51.2928 16.425 50.915 16.6967C50.5371 16.9652 50.0598 17.0994 49.4831 17.0994C49.0059 17.0994 48.5816 16.995 48.2104 16.7862C47.8392 16.5741 47.5475 16.2559 47.3354 15.8317C47.1233 15.4041 47.0172 14.8655 47.0172 14.2159V9.36364H48.1905V14.1364C48.1905 14.6932 48.3463 15.1373 48.6578 15.4688C48.9727 15.8002 49.3738 15.9659 49.861 15.9659C50.1526 15.9659 50.4493 15.8913 50.7509 15.7422C51.0558 15.593 51.311 15.3643 51.5165 15.0561C51.7253 14.7479 51.8297 14.3551 51.8297 13.8778ZM49.5229 8.32955L47.9718 6.02273H49.3439L50.557 8.32955H49.5229ZM62.766 17.1591C62.0501 17.1591 61.4336 16.9901 60.9165 16.652C60.3995 16.3139 60.0018 15.8482 59.7234 15.255C59.445 14.6617 59.3058 13.9839 59.3058 13.2216C59.3058 12.446 59.4483 11.7616 59.7333 11.1683C60.0217 10.5717 60.4227 10.1061 60.9364 9.77131C61.4535 9.43324 62.0567 9.2642 62.7461 9.2642C63.283 9.2642 63.7669 9.36364 64.1978 9.5625C64.6287 9.76136 64.9817 10.0398 65.2567 10.3977C65.5318 10.7557 65.7025 11.1733 65.7688 11.6506H64.5955C64.506 11.3026 64.3072 10.9943 63.9989 10.7259C63.694 10.4541 63.283 10.3182 62.766 10.3182C62.3086 10.3182 61.9076 10.4375 61.5629 10.6761C61.2215 10.9115 60.9547 11.2446 60.7624 11.6754C60.5735 12.103 60.479 12.6051 60.479 13.1818C60.479 13.7718 60.5719 14.2855 60.7575 14.723C60.9464 15.1605 61.2115 15.5002 61.5529 15.7422C61.8976 15.9841 62.302 16.1051 62.766 16.1051C63.0709 16.1051 63.3477 16.0521 63.5962 15.946C63.8448 15.84 64.0553 15.6875 64.2276 15.4886C64.4 15.2898 64.5226 15.0511 64.5955 14.7727H65.7688C65.7025 15.2235 65.5385 15.6295 65.2766 15.9908C65.0181 16.3487 64.6751 16.6338 64.2475 16.8459C63.8233 17.0547 63.3294 17.1591 62.766 17.1591ZM68.6573 12.4062V17H67.484V6.81818H68.6573V10.5568H68.7567C68.9357 10.1624 69.2042 9.84919 69.5621 9.61719C69.9234 9.38187 70.404 9.2642 71.0039 9.2642C71.5243 9.2642 71.98 9.36861 72.3711 9.57741C72.7622 9.78291 73.0655 10.0994 73.2809 10.527C73.4996 10.9512 73.609 11.4915 73.609 12.1477V17H72.4357V12.2273C72.4357 11.6207 72.2783 11.1518 71.9634 10.8203C71.6519 10.4856 71.2193 10.3182 70.6658 10.3182C70.2814 10.3182 69.9367 10.3994 69.6317 10.5618C69.3301 10.7242 69.0915 10.9612 68.9158 11.2727C68.7435 11.5843 68.6573 11.9621 68.6573 12.4062ZM78.8578 17.1591C78.1684 17.1591 77.5635 16.995 77.0431 16.6669C76.5261 16.3388 76.1217 15.8797 75.8301 15.2898C75.5417 14.6998 75.3975 14.0104 75.3975 13.2216C75.3975 12.4261 75.5417 11.7318 75.8301 11.1385C76.1217 10.5452 76.5261 10.0845 77.0431 9.75639C77.5635 9.42827 78.1684 9.2642 78.8578 9.2642C79.5472 9.2642 80.1504 9.42827 80.6674 9.75639C81.1878 10.0845 81.5922 10.5452 81.8805 11.1385C82.1722 11.7318 82.318 12.4261 82.318 13.2216C82.318 14.0104 82.1722 14.6998 81.8805 15.2898C81.5922 15.8797 81.1878 16.3388 80.6674 16.6669C80.1504 16.995 79.5472 17.1591 78.8578 17.1591ZM78.8578 16.1051C79.3815 16.1051 79.8123 15.9709 80.1504 15.7024C80.4885 15.4339 80.7387 15.081 80.9011 14.6435C81.0635 14.206 81.1447 13.732 81.1447 13.2216C81.1447 12.7112 81.0635 12.2356 80.9011 11.7947C80.7387 11.3539 80.4885 10.9976 80.1504 10.7259C79.8123 10.4541 79.3815 10.3182 78.8578 10.3182C78.3341 10.3182 77.9032 10.4541 77.5652 10.7259C77.2271 10.9976 76.9769 11.3539 76.8145 11.7947C76.652 12.2356 76.5708 12.7112 76.5708 13.2216C76.5708 13.732 76.652 14.206 76.8145 14.6435C76.9769 15.081 77.2271 15.4339 77.5652 15.7024C77.9032 15.9709 78.3341 16.1051 78.8578 16.1051ZM76.2924 8.40909L78.3208 6.59943H79.4146L81.443 8.40909H80.0112L78.8777 7.35511L77.7441 8.40909H76.2924ZM80.9061 7.19602L81.8805 5.40625H83.3322L81.9402 7.19602H80.9061ZM84.109 17V9.36364H85.2823V17H84.109ZM84.7056 8.09091C84.4769 8.09091 84.2797 8.01302 84.114 7.85724C83.9516 7.70147 83.8704 7.5142 83.8704 7.29545C83.8704 7.0767 83.9516 6.88944 84.114 6.73366C84.2797 6.57789 84.4769 6.5 84.7056 6.5C84.9343 6.5 85.1299 6.57789 85.2923 6.73366C85.458 6.88944 85.5408 7.0767 85.5408 7.29545C85.5408 7.5142 85.458 7.70147 85.2923 7.85724C85.1299 8.01302 84.9343 8.09091 84.7056 8.09091Z" fill="#EF4444"/>
</svg>
