<svg width="140" height="24" viewBox="0 0 140 24" fill="none" xmlns="http://www.w3.org/2000/svg">
<rect width="140" height="24" rx="4" fill="#E0E7FF"/>
<path d="M29.875 17H27.429V15.9062H29.7955C30.6373 15.9062 31.335 15.7438 31.8885 15.419C32.442 15.0942 32.8546 14.6319 33.1264 14.032C33.3982 13.4321 33.5341 12.7178 33.5341 11.8892C33.5341 11.0672 33.3999 10.3596 33.1314 9.76633C32.8629 9.16974 32.4619 8.71236 31.9283 8.39418C31.3946 8.07268 30.7301 7.91193 29.9347 7.91193H27.3693V6.81818H30.0142C31.0019 6.81818 31.8471 7.02202 32.5497 7.42969C33.2524 7.83404 33.791 8.41572 34.1655 9.17472C34.54 9.9304 34.7273 10.8352 34.7273 11.8892C34.7273 12.9498 34.5384 13.8629 34.1605 14.6286C33.7827 15.3909 33.2325 15.9775 32.5099 16.3885C31.7874 16.7962 30.9091 17 29.875 17ZM27.9659 6.81818V17H26.733V6.81818H27.9659ZM25.1619 12.2074V11.2926H29.5369V12.2074H25.1619ZM38.8835 17.179C38.3996 17.179 37.9605 17.0878 37.5661 16.9055C37.1716 16.7199 36.8584 16.4531 36.6264 16.1051C36.3944 15.7538 36.2784 15.3295 36.2784 14.8324C36.2784 14.3949 36.3646 14.0402 36.5369 13.7685C36.7093 13.4934 36.9396 13.2779 37.228 13.1222C37.5163 12.9664 37.8345 12.8504 38.1825 12.7741C38.5339 12.6946 38.8868 12.6316 39.2415 12.5852C39.7055 12.5256 40.0817 12.4808 40.37 12.451C40.6617 12.4179 40.8738 12.3632 41.0064 12.2869C41.1423 12.2107 41.2102 12.0781 41.2102 11.8892V11.8494C41.2102 11.3589 41.076 10.9777 40.8075 10.706C40.5424 10.4342 40.1397 10.2983 39.5994 10.2983C39.0393 10.2983 38.6001 10.4209 38.282 10.6662C37.9638 10.9115 37.7401 11.1733 37.6108 11.4517L36.4972 11.054C36.696 10.59 36.9612 10.2287 37.2926 9.97017C37.6274 9.70833 37.992 9.52604 38.3864 9.4233C38.7841 9.31723 39.1752 9.2642 39.5597 9.2642C39.8049 9.2642 40.0866 9.29403 40.4048 9.35369C40.7263 9.41004 41.0362 9.5277 41.3345 9.70668C41.6361 9.88565 41.8864 10.1558 42.0852 10.517C42.2841 10.8783 42.3835 11.3622 42.3835 11.9688V17H41.2102V15.9659H41.1506C41.071 16.1316 40.9384 16.3089 40.7528 16.4979C40.5672 16.6868 40.3203 16.8475 40.0121 16.9801C39.7038 17.1127 39.3277 17.179 38.8835 17.179ZM39.0625 16.125C39.5265 16.125 39.9176 16.0339 40.2358 15.8516C40.5573 15.6693 40.7992 15.4339 40.9616 15.1456C41.1274 14.8572 41.2102 14.554 41.2102 14.2358V13.1619C41.1605 13.2216 41.0511 13.2763 40.8821 13.326C40.7164 13.3724 40.5241 13.4138 40.3054 13.4503C40.09 13.4834 39.8795 13.5133 39.674 13.5398C39.4718 13.563 39.3078 13.5829 39.1818 13.5994C38.8769 13.6392 38.5919 13.7038 38.3267 13.7933C38.0649 13.8795 37.8527 14.0104 37.6903 14.1861C37.5313 14.3584 37.4517 14.5937 37.4517 14.892C37.4517 15.2997 37.6025 15.608 37.9041 15.8168C38.209 16.0223 38.5952 16.125 39.0625 16.125ZM38.108 8.44886L37.1932 8.40909C37.1932 7.90199 37.3374 7.48769 37.6257 7.16619C37.9174 6.84138 38.277 6.67898 38.7045 6.67898C38.8935 6.67898 39.0608 6.71212 39.2067 6.77841C39.3525 6.84138 39.4917 6.9143 39.6243 6.99716C39.7569 7.08002 39.8928 7.15459 40.032 7.22088C40.1745 7.28385 40.3352 7.31534 40.5142 7.31534C40.7031 7.31534 40.8622 7.24242 40.9915 7.09659C41.1241 6.94744 41.1903 6.76847 41.1903 6.55966L42.0852 6.6392C42.0852 7.15625 41.9394 7.56723 41.6477 7.87216C41.3594 8.17708 41.0014 8.32955 40.5739 8.32955C40.3452 8.32955 40.1563 8.29806 40.0071 8.23508C39.858 8.1688 39.7254 8.09422 39.6094 8.01136C39.4934 7.9285 39.3707 7.85559 39.2415 7.79261C39.1122 7.72633 38.9531 7.69318 38.7642 7.69318C38.5753 7.69318 38.4179 7.76776 38.2919 7.9169C38.1693 8.06274 38.108 8.24006 38.108 8.44886ZM48.4625 19.8636V9.36364H49.5961V10.5767H49.7353C49.8214 10.4441 49.9408 10.2751 50.0932 10.0696C50.249 9.8608 50.4711 9.67519 50.7594 9.51278C51.0511 9.34706 51.4455 9.2642 51.9426 9.2642C52.5856 9.2642 53.1524 9.42495 53.6429 9.74645C54.1335 10.0679 54.5163 10.5237 54.7914 11.1136C55.0665 11.7036 55.204 12.3996 55.204 13.2017C55.204 14.0104 55.0665 14.7114 54.7914 15.3047C54.5163 15.8946 54.1351 16.352 53.6479 16.6768C53.1607 16.9983 52.5989 17.1591 51.9625 17.1591C51.472 17.1591 51.0792 17.0779 50.7843 16.9155C50.4893 16.7498 50.2623 16.5625 50.1032 16.3537C49.9441 16.1416 49.8214 15.9659 49.7353 15.8267H49.6358V19.8636H48.4625ZM49.6159 13.1818C49.6159 13.7585 49.7005 14.2673 49.8695 14.7081C50.0385 15.1456 50.2855 15.4886 50.6103 15.7372C50.9351 15.9825 51.3328 16.1051 51.8034 16.1051C52.294 16.1051 52.7033 15.9759 53.0314 15.7173C53.3629 15.4555 53.6114 15.1042 53.7772 14.6634C53.9462 14.2192 54.0307 13.7254 54.0307 13.1818C54.0307 12.6449 53.9479 12.161 53.7821 11.7301C53.6197 11.2959 53.3728 10.9529 53.0414 10.701C52.7132 10.4458 52.3006 10.3182 51.8034 10.3182C51.3262 10.3182 50.9251 10.4392 50.6003 10.6811C50.2755 10.9197 50.0302 11.2545 49.8645 11.6854C49.6988 12.1129 49.6159 12.6117 49.6159 13.1818ZM58.1671 12.4062V17H56.9938V6.81818H58.1671V10.5568H58.2665C58.4455 10.1624 58.714 9.84919 59.0719 9.61719C59.4332 9.38187 59.9138 9.2642 60.5137 9.2642C61.034 9.2642 61.4898 9.36861 61.8809 9.57741C62.272 9.78291 62.5752 10.0994 62.7907 10.527C63.0094 10.9512 63.1188 11.4915 63.1188 12.1477V17H61.9455V12.2273C61.9455 11.6207 61.7881 11.1518 61.4732 10.8203C61.1616 10.4856 60.7291 10.3182 60.1756 10.3182C59.7911 10.3182 59.4464 10.3994 59.1415 10.5618C58.8399 10.7242 58.6013 10.9612 58.4256 11.2727C58.2533 11.5843 58.1671 11.9621 58.1671 12.4062ZM68.467 17.1591C67.7312 17.1591 67.0965 16.9967 66.5629 16.6719C66.0326 16.3438 65.6232 15.8864 65.3349 15.2997C65.0498 14.7098 64.9073 14.0237 64.9073 13.2415C64.9073 12.4593 65.0498 11.7699 65.3349 11.1733C65.6232 10.5734 66.0243 10.1061 66.538 9.77131C67.055 9.43324 67.6583 9.2642 68.3477 9.2642C68.7454 9.2642 69.1381 9.33049 69.5259 9.46307C69.9137 9.59564 70.2667 9.81108 70.5849 10.1094C70.9031 10.4044 71.1566 10.7955 71.3455 11.2827C71.5344 11.7699 71.6289 12.3698 71.6289 13.0824V13.5795H65.7425V12.5653H70.4357C70.4357 12.1345 70.3496 11.75 70.1772 11.4119C70.0082 11.0739 69.7662 10.8071 69.4513 10.6115C69.1398 10.416 68.7719 10.3182 68.3477 10.3182C67.8803 10.3182 67.476 10.4342 67.1346 10.6662C66.7965 10.8949 66.5363 11.1932 66.354 11.5611C66.1718 11.929 66.0806 12.3234 66.0806 12.7443V13.4205C66.0806 13.9972 66.18 14.486 66.3789 14.8871C66.5811 15.2848 66.8612 15.5881 67.2191 15.7969C67.5771 16.0024 67.993 16.1051 68.467 16.1051C68.7752 16.1051 69.0536 16.062 69.3022 15.9759C69.5541 15.8864 69.7712 15.7538 69.9535 15.5781C70.1358 15.3991 70.2766 15.1771 70.3761 14.9119L71.5096 15.2301C71.3903 15.6146 71.1897 15.9527 70.908 16.2443C70.6263 16.5327 70.2783 16.758 69.864 16.9205C69.4497 17.0795 68.984 17.1591 68.467 17.1591ZM69.3221 8.44886L68.288 7.05682L67.2539 8.44886H66.1403V8.36932L67.7511 6.30114H68.8249L70.4357 8.36932V8.44886H69.3221ZM80.2347 17.1591C79.5984 17.1591 79.0366 16.9983 78.5494 16.6768C78.0621 16.352 77.681 15.8946 77.4059 15.3047C77.1308 14.7114 76.9933 14.0104 76.9933 13.2017C76.9933 12.3996 77.1308 11.7036 77.4059 11.1136C77.681 10.5237 78.0638 10.0679 78.5543 9.74645C79.0449 9.42495 79.6116 9.2642 80.2546 9.2642C80.7518 9.2642 81.1445 9.34706 81.4329 9.51278C81.7246 9.67519 81.9466 9.8608 82.0991 10.0696C82.2549 10.2751 82.3758 10.4441 82.462 10.5767H82.5614V6.81818H83.7347V17H82.6012V15.8267H82.462C82.3758 15.9659 82.2532 16.1416 82.0941 16.3537C81.935 16.5625 81.708 16.7498 81.413 16.9155C81.118 17.0779 80.7253 17.1591 80.2347 17.1591ZM80.3938 16.1051C80.8645 16.1051 81.2622 15.9825 81.587 15.7372C81.9118 15.4886 82.1587 15.1456 82.3278 14.7081C82.4968 14.2673 82.5813 13.7585 82.5813 13.1818C82.5813 12.6117 82.4985 12.1129 82.3327 11.6854C82.167 11.2545 81.9218 10.9197 81.5969 10.6811C81.2721 10.4392 80.8711 10.3182 80.3938 10.3182C79.8967 10.3182 79.4824 10.4458 79.1509 10.701C78.8228 10.9529 78.5759 11.2959 78.4102 11.7301C78.2478 12.161 78.1665 12.6449 78.1665 13.1818C78.1665 13.7254 78.2494 14.2192 78.4151 14.6634C78.5842 15.1042 78.8327 15.4555 79.1609 15.7173C79.4923 15.9759 79.9033 16.1051 80.3938 16.1051ZM90.859 13.8778V9.36364H92.0323V17H90.859V15.7074H90.7795C90.6005 16.0952 90.3221 16.425 89.9442 16.6967C89.5664 16.9652 89.0891 17.0994 88.5124 17.0994C88.0352 17.0994 87.6109 16.995 87.2397 16.7862C86.8685 16.5741 86.5768 16.2559 86.3647 15.8317C86.1526 15.4041 86.0465 14.8655 86.0465 14.2159V9.36364H87.2198V14.1364C87.2198 14.6932 87.3756 15.1373 87.6871 15.4688C88.002 15.8002 88.4031 15.9659 88.8903 15.9659C89.1819 15.9659 89.4786 15.8913 89.7802 15.7422C90.0851 15.593 90.3403 15.3643 90.5458 15.0561C90.7546 14.7479 90.859 14.3551 90.859 13.8778ZM94.937 19.8636C94.7381 19.8636 94.5608 19.8471 94.405 19.8139C94.2492 19.7841 94.1415 19.7543 94.0819 19.7244L94.3801 18.6903C94.6652 18.7633 94.9171 18.7898 95.1358 18.7699C95.3546 18.75 95.5485 18.6522 95.7175 18.4766C95.8899 18.3042 96.0473 18.0241 96.1898 17.6364L96.4086 17.0398L93.5847 9.36364H94.8574L96.9654 15.4489H97.0449L99.1529 9.36364H100.426L97.1841 18.1136C97.0383 18.508 96.8577 18.8345 96.6422 19.093C96.4268 19.3549 96.1766 19.5488 95.8915 19.6747C95.6098 19.8007 95.2916 19.8636 94.937 19.8636ZM104.903 17.1591C104.167 17.1591 103.532 16.9967 102.998 16.6719C102.468 16.3438 102.059 15.8864 101.77 15.2997C101.485 14.7098 101.343 14.0237 101.343 13.2415C101.343 12.4593 101.485 11.7699 101.77 11.1733C102.059 10.5734 102.46 10.1061 102.974 9.77131C103.491 9.43324 104.094 9.2642 104.783 9.2642C105.181 9.2642 105.574 9.33049 105.961 9.46307C106.349 9.59564 106.702 9.81108 107.02 10.1094C107.339 10.4044 107.592 10.7955 107.781 11.2827C107.97 11.7699 108.064 12.3698 108.064 13.0824V13.5795H102.178V12.5653H106.871C106.871 12.1345 106.785 11.75 106.613 11.4119C106.444 11.0739 106.202 10.8071 105.887 10.6115C105.575 10.416 105.207 10.3182 104.783 10.3182C104.316 10.3182 103.912 10.4342 103.57 10.6662C103.232 10.8949 102.972 11.1932 102.79 11.5611C102.607 11.929 102.516 12.3234 102.516 12.7443V13.4205C102.516 13.9972 102.616 14.486 102.814 14.8871C103.017 15.2848 103.297 15.5881 103.655 15.7969C104.013 16.0024 104.429 16.1051 104.903 16.1051C105.211 16.1051 105.489 16.062 105.738 15.9759C105.99 15.8864 106.207 15.7538 106.389 15.5781C106.571 15.3991 106.712 15.1771 106.812 14.9119L107.945 15.2301C107.826 15.6146 107.625 15.9527 107.344 16.2443C107.062 16.5327 106.714 16.758 106.3 16.9205C105.885 17.0795 105.42 17.1591 104.903 17.1591ZM105.758 8.44886L104.724 7.05682L103.689 8.44886H102.576V8.36932L104.187 6.30114H105.26L106.871 8.36932V8.44886H105.758ZM104.724 19.5256C104.495 19.5256 104.298 19.4477 104.132 19.2919C103.97 19.1361 103.888 18.9489 103.888 18.7301C103.888 18.5114 103.97 18.3241 104.132 18.1683C104.298 18.0125 104.495 17.9347 104.724 17.9347C104.952 17.9347 105.148 18.0125 105.31 18.1683C105.476 18.3241 105.559 18.5114 105.559 18.7301C105.559 18.9489 105.476 19.1361 105.31 19.2919C105.148 19.4477 104.952 19.5256 104.724 19.5256ZM113.17 9.36364V10.358H109.213V9.36364H113.17ZM110.366 7.53409H111.54V14.8125C111.54 15.1439 111.588 15.3925 111.684 15.5582C111.783 15.7206 111.909 15.83 112.062 15.8864C112.217 15.9394 112.381 15.9659 112.554 15.9659C112.683 15.9659 112.789 15.9593 112.872 15.946C112.955 15.9295 113.021 15.9162 113.071 15.9062L113.309 16.9602C113.23 16.9901 113.119 17.0199 112.976 17.0497C112.834 17.0829 112.653 17.0994 112.434 17.0994C112.103 17.0994 111.778 17.0282 111.46 16.8857C111.145 16.7431 110.883 16.526 110.675 16.2344C110.469 15.9427 110.366 15.5748 110.366 15.1307V7.53409Z" fill="#4F46E5"/>
</svg>
