<svg width="100" height="32" viewBox="0 0 100 32" fill="none" xmlns="http://www.w3.org/2000/svg">
<rect width="100" height="32" rx="4" fill="#438EB9"/>
<path d="M9.50001 15.9999C9.49986 15.0343 9.75388 14.0858 10.2365 13.2496C10.7192 12.4133 11.4135 11.7189 12.2496 11.2361C13.0858 10.7533 14.0343 10.499 14.9998 10.499C15.9653 10.499 16.9138 10.7531 17.75 11.2359C17.8648 11.3011 18.0007 11.3183 18.1281 11.2837C18.2556 11.2491 18.3641 11.1656 18.4301 11.0512C18.4962 10.9369 18.5143 10.8011 18.4805 10.6734C18.4468 10.5458 18.3639 10.4366 18.25 10.3699C17.0109 9.65445 15.5703 9.36789 14.1517 9.55463C12.7331 9.74137 11.4157 10.391 10.404 11.4027C9.39218 12.4144 8.74249 13.7317 8.55566 15.1503C8.36883 16.5689 8.6553 18.0095 9.37064 19.2487C10.086 20.4879 11.1902 21.4564 12.5121 22.0041C13.834 22.5517 15.2996 22.6479 16.6817 22.2777C18.0638 21.9075 19.2852 21.0916 20.1564 19.9566C21.0275 18.8215 21.4998 17.4307 21.5 15.9999C21.5 15.8673 21.4473 15.7401 21.3536 15.6463C21.2598 15.5525 21.1326 15.4999 21 15.4999C20.8674 15.4999 20.7402 15.5525 20.6465 15.6463C20.5527 15.7401 20.5 15.8673 20.5 15.9999C20.5 17.4586 19.9205 18.8575 18.8891 19.889C17.8576 20.9204 16.4587 21.4999 15 21.4999C13.5413 21.4999 12.1424 20.9204 11.1109 19.889C10.0795 18.8575 9.50001 17.4586 9.50001 15.9999Z" fill="white"/>
<path d="M22.354 11.3537C22.4005 11.3072 22.4374 11.252 22.4625 11.1912C22.4877 11.1305 22.5007 11.0654 22.5007 10.9997C22.5007 10.9339 22.4877 10.8688 22.4625 10.8081C22.4374 10.7473 22.4005 10.6921 22.354 10.6457C22.3075 10.5992 22.2523 10.5623 22.1916 10.5371C22.1309 10.512 22.0658 10.499 22 10.499C21.9343 10.499 21.8692 10.512 21.8084 10.5371C21.7477 10.5623 21.6925 10.5992 21.646 10.6457L15 17.2927L12.354 14.6457C12.3075 14.5992 12.2523 14.5623 12.1916 14.5371C12.1309 14.512 12.0658 14.499 12 14.499C11.9343 14.499 11.8692 14.512 11.8084 14.5371C11.7477 14.5623 11.6925 14.5992 11.646 14.6457C11.5995 14.6921 11.5627 14.7473 11.5375 14.8081C11.5123 14.8688 11.4994 14.9339 11.4994 14.9997C11.4994 15.0654 11.5123 15.1305 11.5375 15.1912C11.5627 15.252 11.5995 15.3072 11.646 15.3537L14.646 18.3537C14.6925 18.4002 14.7476 18.4372 14.8084 18.4624C14.8691 18.4876 14.9343 18.5005 15 18.5005C15.0658 18.5005 15.1309 18.4876 15.1917 18.4624C15.2524 18.4372 15.3076 18.4002 15.354 18.3537L22.354 11.3537Z" fill="white"/>
<path d="M32.8295 10.8182L35.4545 15.054H35.5341L38.1591 10.8182H39.6108L36.4091 15.9091L39.6108 21H38.1591L35.5341 16.8438H35.4545L32.8295 21H31.3778L34.6591 15.9091L31.3778 10.8182H32.8295ZM43.3034 21.179C42.8195 21.179 42.3804 21.0878 41.986 20.9055C41.5916 20.7199 41.2783 20.4531 41.0463 20.1051C40.8143 19.7538 40.6983 19.3295 40.6983 18.8324C40.6983 18.3949 40.7845 18.0402 40.9569 17.7685C41.1292 17.4934 41.3596 17.2779 41.6479 17.1222C41.9363 16.9664 42.2544 16.8504 42.6025 16.7741C42.9538 16.6946 43.3068 16.6316 43.6614 16.5852C44.1254 16.5256 44.5016 16.4808 44.79 16.451C45.0816 16.4179 45.2937 16.3632 45.4263 16.2869C45.5622 16.2107 45.6301 16.0781 45.6301 15.8892V15.8494C45.6301 15.3589 45.4959 14.9777 45.2275 14.706C44.9623 14.4342 44.5596 14.2983 44.0194 14.2983C43.4592 14.2983 43.0201 14.4209 42.7019 14.6662C42.3837 14.9115 42.16 15.1733 42.0307 15.4517L40.9171 15.054C41.1159 14.59 41.3811 14.2287 41.7125 13.9702C42.0473 13.7083 42.4119 13.526 42.8063 13.4233C43.204 13.3172 43.5951 13.2642 43.9796 13.2642C44.2248 13.2642 44.5066 13.294 44.8248 13.3537C45.1462 13.41 45.4561 13.5277 45.7544 13.7067C46.056 13.8857 46.3063 14.1558 46.5051 14.517C46.704 14.8783 46.8034 15.3622 46.8034 15.9688V21H45.6301V19.9659H45.5705C45.4909 20.1316 45.3584 20.3089 45.1728 20.4979C44.9872 20.6868 44.7402 20.8475 44.432 20.9801C44.1238 21.1127 43.7476 21.179 43.3034 21.179ZM43.4824 20.125C43.9464 20.125 44.3375 20.0339 44.6557 19.8516C44.9772 19.6693 45.2192 19.4339 45.3816 19.1456C45.5473 18.8572 45.6301 18.554 45.6301 18.2358V17.1619C45.5804 17.2216 45.4711 17.2763 45.302 17.326C45.1363 17.3724 44.9441 17.4138 44.7253 17.4503C44.5099 17.4834 44.2994 17.5133 44.0939 17.5398C43.8917 17.563 43.7277 17.5829 43.6017 17.5994C43.2968 17.6392 43.0118 17.7038 42.7466 17.7933C42.4848 17.8795 42.2727 18.0104 42.1103 18.1861C41.9512 18.3584 41.8716 18.5937 41.8716 18.892C41.8716 19.2997 42.0224 19.608 42.324 19.8168C42.629 20.0223 43.0151 20.125 43.4824 20.125ZM43.5222 12.3295L44.7353 10.0227H46.1074L44.5563 12.3295H43.5222ZM52.0472 21.1591C51.3313 21.1591 50.7148 20.9901 50.1978 20.652C49.6808 20.3139 49.283 19.8482 49.0046 19.255C48.7262 18.6617 48.587 17.9839 48.587 17.2216C48.587 16.446 48.7295 15.7616 49.0146 15.1683C49.3029 14.5717 49.704 14.1061 50.2177 13.7713C50.7347 13.4332 51.3379 13.2642 52.0273 13.2642C52.5643 13.2642 53.0482 13.3636 53.479 13.5625C53.9099 13.7614 54.2629 14.0398 54.538 14.3977C54.8131 14.7557 54.9838 15.1733 55.0501 15.6506H53.8768C53.7873 15.3026 53.5884 14.9943 53.2802 14.7259C52.9753 14.4541 52.5643 14.3182 52.0472 14.3182C51.5898 14.3182 51.1888 14.4375 50.8441 14.6761C50.5027 14.9115 50.2359 15.2446 50.0437 15.6754C49.8548 16.103 49.7603 16.6051 49.7603 17.1818C49.7603 17.7718 49.8531 18.2855 50.0387 18.723C50.2276 19.1605 50.4928 19.5002 50.8342 19.7422C51.1789 19.9841 51.5832 20.1051 52.0472 20.1051C52.3522 20.1051 52.6289 20.0521 52.8775 19.946C53.1261 19.84 53.3365 19.6875 53.5089 19.4886C53.6812 19.2898 53.8039 19.0511 53.8768 18.7727H55.0501C54.9838 19.2235 54.8197 19.6295 54.5579 19.9908C54.2994 20.3487 53.9563 20.6338 53.5288 20.8459C53.1045 21.0547 52.6107 21.1591 52.0472 21.1591ZM61.8761 16.4062V21H60.7028V13.3636H61.8363V14.5568H61.9357C62.1147 14.169 62.3865 13.8575 62.7511 13.6222C63.1156 13.3835 63.5863 13.2642 64.163 13.2642C64.68 13.2642 65.1325 13.3703 65.5202 13.5824C65.908 13.7912 66.2096 14.1094 66.4251 14.5369C66.6405 14.9612 66.7482 15.4981 66.7482 16.1477V21H65.5749V16.2273C65.5749 15.6274 65.4192 15.16 65.1076 14.8253C64.796 14.4872 64.3685 14.3182 63.8249 14.3182C63.4504 14.3182 63.1156 14.3994 62.8207 14.5618C62.529 14.7242 62.2987 14.9612 62.1296 15.2727C61.9606 15.5843 61.8761 15.9621 61.8761 16.4062ZM70.0655 16.4062V21H68.8922V10.8182H70.0655V14.5568H70.165C70.3439 14.1624 70.6124 13.8492 70.9703 13.6172C71.3316 13.3819 71.8122 13.2642 72.4121 13.2642C72.9325 13.2642 73.3882 13.3686 73.7793 13.5774C74.1704 13.7829 74.4737 14.0994 74.6891 14.527C74.9078 14.9512 75.0172 15.4915 75.0172 16.1477V21H73.8439V16.2273C73.8439 15.6207 73.6865 15.1518 73.3716 14.8203C73.0601 14.4856 72.6275 14.3182 72.074 14.3182C71.6896 14.3182 71.3449 14.3994 71.04 14.5618C70.7383 14.7242 70.4997 14.9612 70.324 15.2727C70.1517 15.5843 70.0655 15.9621 70.0655 16.4062ZM79.4109 21.179C78.927 21.179 78.4878 21.0878 78.0934 20.9055C77.699 20.7199 77.3858 20.4531 77.1538 20.1051C76.9218 19.7538 76.8058 19.3295 76.8058 18.8324C76.8058 18.3949 76.8919 18.0402 77.0643 17.7685C77.2366 17.4934 77.467 17.2779 77.7553 17.1222C78.0437 16.9664 78.3619 16.8504 78.7099 16.7741C79.0612 16.6946 79.4142 16.6316 79.7688 16.5852C80.2328 16.5256 80.609 16.4808 80.8974 16.451C81.189 16.4179 81.4012 16.3632 81.5337 16.2869C81.6696 16.2107 81.7376 16.0781 81.7376 15.8892V15.8494C81.7376 15.3589 81.6033 14.9777 81.3349 14.706C81.0697 14.4342 80.667 14.2983 80.1268 14.2983C79.5666 14.2983 79.1275 14.4209 78.8093 14.6662C78.4911 14.9115 78.2674 15.1733 78.1381 15.4517L77.0245 15.054C77.2234 14.59 77.4885 14.2287 77.82 13.9702C78.1547 13.7083 78.5193 13.526 78.9137 13.4233C79.3114 13.3172 79.7025 13.2642 80.087 13.2642C80.3323 13.2642 80.614 13.294 80.9322 13.3537C81.2537 13.41 81.5636 13.5277 81.8619 13.7067C82.1635 13.8857 82.4137 14.1558 82.6126 14.517C82.8114 14.8783 82.9109 15.3622 82.9109 15.9688V21H81.7376V19.9659H81.6779C81.5984 20.1316 81.4658 20.3089 81.2802 20.4979C81.0946 20.6868 80.8477 20.8475 80.5394 20.9801C80.2312 21.1127 79.855 21.179 79.4109 21.179ZM79.5898 20.125C80.0539 20.125 80.445 20.0339 80.7631 19.8516C81.0846 19.6693 81.3266 19.4339 81.489 19.1456C81.6547 18.8572 81.7376 18.554 81.7376 18.2358V17.1619C81.6879 17.2216 81.5785 17.2763 81.4094 17.326C81.2437 17.3724 81.0515 17.4138 80.8327 17.4503C80.6173 17.4834 80.4068 17.5133 80.2013 17.5398C79.9992 17.563 79.8351 17.5829 79.7092 17.5994C79.4042 17.6392 79.1192 17.7038 78.854 17.7933C78.5922 17.8795 78.3801 18.0104 78.2177 18.1861C78.0586 18.3584 77.979 18.5937 77.979 18.892C77.979 19.2997 78.1299 19.608 78.4315 19.8168C78.7364 20.0223 79.1225 20.125 79.5898 20.125ZM81.2006 12.4489L80.1665 11.0568L79.1325 12.4489H78.0188V12.3693L79.6296 10.3011H80.7035L82.3143 12.3693V12.4489H81.2006ZM80.1069 23.5256C79.8782 23.5256 79.681 23.4477 79.5153 23.2919C79.3529 23.1361 79.2717 22.9489 79.2717 22.7301C79.2717 22.5114 79.3529 22.3241 79.5153 22.1683C79.681 22.0125 79.8782 21.9347 80.1069 21.9347C80.3356 21.9347 80.5311 22.0125 80.6935 22.1683C80.8593 22.3241 80.9421 22.5114 80.9421 22.7301C80.9421 22.9489 80.8593 23.1361 80.6935 23.2919C80.5311 23.4477 80.3356 23.5256 80.1069 23.5256ZM86.2257 16.4062V21H85.0524V13.3636H86.1859V14.5568H86.2853C86.4643 14.169 86.7361 13.8575 87.1007 13.6222C87.4653 13.3835 87.9359 13.2642 88.5126 13.2642C89.0297 13.2642 89.4821 13.3703 89.8699 13.5824C90.2576 13.7912 90.5592 14.1094 90.7747 14.5369C90.9901 14.9612 91.0978 15.4981 91.0978 16.1477V21H89.9245V16.2273C89.9245 15.6274 89.7688 15.16 89.4572 14.8253C89.1457 14.4872 88.7181 14.3182 88.1745 14.3182C87.8 14.3182 87.4653 14.3994 87.1703 14.5618C86.8786 14.7242 86.6483 14.9612 86.4792 15.2727C86.3102 15.5843 86.2257 15.9621 86.2257 16.4062Z" fill="white"/>
</svg>
