<svg width="140" height="24" viewBox="0 0 140 24" fill="none" xmlns="http://www.w3.org/2000/svg">
<rect width="140" height="24" rx="4" fill="#DCFCE7"/>
<path d="M32.375 17H29.929V15.9062H32.2955C33.1373 15.9062 33.835 15.7438 34.3885 15.419C34.942 15.0942 35.3546 14.6319 35.6264 14.032C35.8982 13.4321 36.0341 12.7178 36.0341 11.8892C36.0341 11.0672 35.8999 10.3596 35.6314 9.76633C35.3629 9.16974 34.9619 8.71236 34.4283 8.39418C33.8946 8.07268 33.2301 7.91193 32.4347 7.91193H29.8693V6.81818H32.5142C33.5019 6.81818 34.3471 7.02202 35.0497 7.42969C35.7524 7.83404 36.291 8.41572 36.6655 9.17472C37.04 9.9304 37.2273 10.8352 37.2273 11.8892C37.2273 12.9498 37.0384 13.8629 36.6605 14.6286C36.2827 15.3909 35.7325 15.9775 35.0099 16.3885C34.2874 16.7962 33.4091 17 32.375 17ZM30.4659 6.81818V17H29.233V6.81818H30.4659ZM27.6619 12.2074V11.2926H32.0369V12.2074H27.6619ZM41.3835 17.179C40.8996 17.179 40.4605 17.0878 40.0661 16.9055C39.6716 16.7199 39.3584 16.4531 39.1264 16.1051C38.8944 15.7538 38.7784 15.3295 38.7784 14.8324C38.7784 14.3949 38.8646 14.0402 39.0369 13.7685C39.2093 13.4934 39.4396 13.2779 39.728 13.1222C40.0163 12.9664 40.3345 12.8504 40.6825 12.7741C41.0339 12.6946 41.3868 12.6316 41.7415 12.5852C42.2055 12.5256 42.5817 12.4808 42.87 12.451C43.1617 12.4179 43.3738 12.3632 43.5064 12.2869C43.6423 12.2107 43.7102 12.0781 43.7102 11.8892V11.8494C43.7102 11.3589 43.576 10.9777 43.3075 10.706C43.0424 10.4342 42.6397 10.2983 42.0994 10.2983C41.5393 10.2983 41.1001 10.4209 40.782 10.6662C40.4638 10.9115 40.2401 11.1733 40.1108 11.4517L38.9972 11.054C39.196 10.59 39.4612 10.2287 39.7926 9.97017C40.1274 9.70833 40.492 9.52604 40.8864 9.4233C41.2841 9.31723 41.6752 9.2642 42.0597 9.2642C42.3049 9.2642 42.5866 9.29403 42.9048 9.35369C43.2263 9.41004 43.5362 9.5277 43.8345 9.70668C44.1361 9.88565 44.3864 10.1558 44.5852 10.517C44.7841 10.8783 44.8835 11.3622 44.8835 11.9688V17H43.7102V15.9659H43.6506C43.571 16.1316 43.4384 16.3089 43.2528 16.4979C43.0672 16.6868 42.8203 16.8475 42.5121 16.9801C42.2038 17.1127 41.8277 17.179 41.3835 17.179ZM41.5625 16.125C42.0265 16.125 42.4176 16.0339 42.7358 15.8516C43.0573 15.6693 43.2992 15.4339 43.4616 15.1456C43.6274 14.8572 43.7102 14.554 43.7102 14.2358V13.1619C43.6605 13.2216 43.5511 13.2763 43.3821 13.326C43.2164 13.3724 43.0241 13.4138 42.8054 13.4503C42.59 13.4834 42.3795 13.5133 42.174 13.5398C41.9718 13.563 41.8078 13.5829 41.6818 13.5994C41.3769 13.6392 41.0919 13.7038 40.8267 13.7933C40.5649 13.8795 40.3527 14.0104 40.1903 14.1861C40.0313 14.3584 39.9517 14.5937 39.9517 14.892C39.9517 15.2997 40.1025 15.608 40.4041 15.8168C40.709 16.0223 41.0952 16.125 41.5625 16.125ZM40.608 8.44886L39.6932 8.40909C39.6932 7.90199 39.8374 7.48769 40.1257 7.16619C40.4174 6.84138 40.777 6.67898 41.2045 6.67898C41.3935 6.67898 41.5608 6.71212 41.7067 6.77841C41.8525 6.84138 41.9917 6.9143 42.1243 6.99716C42.2569 7.08002 42.3928 7.15459 42.532 7.22088C42.6745 7.28385 42.8352 7.31534 43.0142 7.31534C43.2031 7.31534 43.3622 7.24242 43.4915 7.09659C43.6241 6.94744 43.6903 6.76847 43.6903 6.55966L44.5852 6.6392C44.5852 7.15625 44.4394 7.56723 44.1477 7.87216C43.8594 8.17708 43.5014 8.32955 43.0739 8.32955C42.8452 8.32955 42.6563 8.29806 42.5071 8.23508C42.358 8.1688 42.2254 8.09422 42.1094 8.01136C41.9934 7.9285 41.8707 7.85559 41.7415 7.79261C41.6122 7.72633 41.4531 7.69318 41.2642 7.69318C41.0753 7.69318 40.9179 7.76776 40.7919 7.9169C40.6693 8.06274 40.608 8.24006 40.608 8.44886ZM51.1216 17V6.81818H52.2949V10.5767H52.3944C52.4805 10.4441 52.5998 10.2751 52.7523 10.0696C52.9081 9.8608 53.1301 9.67519 53.4185 9.51278C53.7102 9.34706 54.1046 9.2642 54.6017 9.2642C55.2447 9.2642 55.8115 9.42495 56.302 9.74645C56.7926 10.0679 57.1754 10.5237 57.4505 11.1136C57.7256 11.7036 57.8631 12.3996 57.8631 13.2017C57.8631 14.0104 57.7256 14.7114 57.4505 15.3047C57.1754 15.8946 56.7942 16.352 56.307 16.6768C55.8198 16.9983 55.258 17.1591 54.6216 17.1591C54.1311 17.1591 53.7383 17.0779 53.4434 16.9155C53.1484 16.7498 52.9213 16.5625 52.7623 16.3537C52.6032 16.1416 52.4805 15.9659 52.3944 15.8267H52.2551V17H51.1216ZM52.275 13.1818C52.275 13.7585 52.3596 14.2673 52.5286 14.7081C52.6976 15.1456 52.9445 15.4886 53.2694 15.7372C53.5942 15.9825 53.9919 16.1051 54.4625 16.1051C54.9531 16.1051 55.3624 15.9759 55.6905 15.7173C56.022 15.4555 56.2705 15.1042 56.4363 14.6634C56.6053 14.2192 56.6898 13.7254 56.6898 13.1818C56.6898 12.6449 56.6069 12.161 56.4412 11.7301C56.2788 11.2959 56.0319 10.9529 55.7005 10.701C55.3723 10.4458 54.9597 10.3182 54.4625 10.3182C53.9853 10.3182 53.5842 10.4392 53.2594 10.6811C52.9346 10.9197 52.6893 11.2545 52.5236 11.6854C52.3579 12.1129 52.275 12.6117 52.275 13.1818ZM61.905 17.179C61.4211 17.179 60.9819 17.0878 60.5875 16.9055C60.1931 16.7199 59.8799 16.4531 59.6479 16.1051C59.4159 15.7538 59.2999 15.3295 59.2999 14.8324C59.2999 14.3949 59.3861 14.0402 59.5584 13.7685C59.7308 13.4934 59.9611 13.2779 60.2495 13.1222C60.5378 12.9664 60.856 12.8504 61.204 12.7741C61.5553 12.6946 61.9083 12.6316 62.263 12.5852C62.727 12.5256 63.1032 12.4808 63.3915 12.451C63.6832 12.4179 63.8953 12.3632 64.0279 12.2869C64.1638 12.2107 64.2317 12.0781 64.2317 11.8892V11.8494C64.2317 11.3589 64.0975 10.9777 63.829 10.706C63.5639 10.4342 63.1612 10.2983 62.6209 10.2983C62.0608 10.2983 61.6216 10.4209 61.3034 10.6662C60.9853 10.9115 60.7615 11.1733 60.6323 11.4517L59.5186 11.054C59.7175 10.59 59.9827 10.2287 60.3141 9.97017C60.6489 9.70833 61.0134 9.52604 61.4078 9.4233C61.8056 9.31723 62.1967 9.2642 62.5811 9.2642C62.8264 9.2642 63.1081 9.29403 63.4263 9.35369C63.7478 9.41004 64.0577 9.5277 64.356 9.70668C64.6576 9.88565 64.9078 10.1558 65.1067 10.517C65.3056 10.8783 65.405 11.3622 65.405 11.9688V17H64.2317V15.9659H64.1721C64.0925 16.1316 63.9599 16.3089 63.7743 16.4979C63.5887 16.6868 63.3418 16.8475 63.0336 16.9801C62.7253 17.1127 62.3491 17.179 61.905 17.179ZM62.084 16.125C62.548 16.125 62.9391 16.0339 63.2573 15.8516C63.5788 15.6693 63.8207 15.4339 63.9831 15.1456C64.1489 14.8572 64.2317 14.554 64.2317 14.2358V13.1619C64.182 13.2216 64.0726 13.2763 63.9036 13.326C63.7379 13.3724 63.5456 13.4138 63.3269 13.4503C63.1114 13.4834 62.901 13.5133 62.6955 13.5398C62.4933 13.563 62.3292 13.5829 62.2033 13.5994C61.8984 13.6392 61.6133 13.7038 61.3482 13.7933C61.0864 13.8795 60.8742 14.0104 60.7118 14.1861C60.5527 14.3584 60.4732 14.5937 60.4732 14.892C60.4732 15.2997 60.624 15.608 60.9256 15.8168C61.2305 16.0223 61.6167 16.125 62.084 16.125ZM68.7198 12.4062V17H67.5465V9.36364H68.68V10.5568H68.7795C68.9585 10.169 69.2302 9.85748 69.5948 9.62216C69.9594 9.38352 70.43 9.2642 71.0067 9.2642C71.5238 9.2642 71.9762 9.37027 72.364 9.58239C72.7518 9.79119 73.0534 10.1094 73.2688 10.5369C73.4843 10.9612 73.592 11.4981 73.592 12.1477V17H72.4187V12.2273C72.4187 11.6274 72.2629 11.16 71.9513 10.8253C71.6398 10.4872 71.2122 10.3182 70.6687 10.3182C70.2942 10.3182 69.9594 10.3994 69.6644 10.5618C69.3728 10.7242 69.1424 10.9612 68.9734 11.2727C68.8043 11.5843 68.7198 11.9621 68.7198 12.4062ZM80.8468 12.4062V17H79.6735V6.81818H80.8468V10.5568H80.9462C81.1252 10.1624 81.3936 9.84919 81.7516 9.61719C82.1129 9.38187 82.5935 9.2642 83.1934 9.2642C83.7137 9.2642 84.1694 9.36861 84.5605 9.57741C84.9516 9.78291 85.2549 10.0994 85.4703 10.527C85.6891 10.9512 85.7985 11.4915 85.7985 12.1477V17H84.6252V12.2273C84.6252 11.6207 84.4677 11.1518 84.1529 10.8203C83.8413 10.4856 83.4088 10.3182 82.8553 10.3182C82.4708 10.3182 82.1261 10.3994 81.8212 10.5618C81.5196 10.7242 81.281 10.9612 81.1053 11.2727C80.9329 11.5843 80.8468 11.9621 80.8468 12.4062ZM90.1921 17.179C89.7082 17.179 89.2691 17.0878 88.8746 16.9055C88.4802 16.7199 88.167 16.4531 87.935 16.1051C87.703 15.7538 87.587 15.3295 87.587 14.8324C87.587 14.3949 87.6732 14.0402 87.8455 13.7685C88.0179 13.4934 88.2482 13.2779 88.5366 13.1222C88.8249 12.9664 89.1431 12.8504 89.4911 12.7741C89.8424 12.6946 90.1954 12.6316 90.5501 12.5852C91.0141 12.5256 91.3903 12.4808 91.6786 12.451C91.9703 12.4179 92.1824 12.3632 92.315 12.2869C92.4509 12.2107 92.5188 12.0781 92.5188 11.8892V11.8494C92.5188 11.3589 92.3846 10.9777 92.1161 10.706C91.851 10.4342 91.4483 10.2983 90.908 10.2983C90.3479 10.2983 89.9087 10.4209 89.5906 10.6662C89.2724 10.9115 89.0487 11.1733 88.9194 11.4517L87.8058 11.054C88.0046 10.59 88.2698 10.2287 88.6012 9.97017C88.936 9.70833 89.3005 9.52604 89.695 9.4233C90.0927 9.31723 90.4838 9.2642 90.8683 9.2642C91.1135 9.2642 91.3952 9.29403 91.7134 9.35369C92.0349 9.41004 92.3448 9.5277 92.6431 9.70668C92.9447 9.88565 93.195 10.1558 93.3938 10.517C93.5927 10.8783 93.6921 11.3622 93.6921 11.9688V17H92.5188V15.9659H92.4592C92.3796 16.1316 92.247 16.3089 92.0614 16.4979C91.8758 16.6868 91.6289 16.8475 91.3207 16.9801C91.0124 17.1127 90.6362 17.179 90.1921 17.179ZM90.3711 16.125C90.8351 16.125 91.2262 16.0339 91.5444 15.8516C91.8659 15.6693 92.1078 15.4339 92.2702 15.1456C92.436 14.8572 92.5188 14.554 92.5188 14.2358V13.1619C92.4691 13.2216 92.3597 13.2763 92.1907 13.326C92.025 13.3724 91.8327 13.4138 91.614 13.4503C91.3986 13.4834 91.1881 13.5133 90.9826 13.5398C90.7804 13.563 90.6164 13.5829 90.4904 13.5994C90.1855 13.6392 89.9004 13.7038 89.6353 13.7933C89.3735 13.8795 89.1613 14.0104 88.9989 14.1861C88.8398 14.3584 88.7603 14.5937 88.7603 14.892C88.7603 15.2997 88.9111 15.608 89.2127 15.8168C89.5176 16.0223 89.9038 16.125 90.3711 16.125ZM90.4506 8.32955L88.8995 6.02273H90.2717L91.4847 8.32955H90.4506ZM97.0069 12.4062V17H95.8336V9.36364H96.9672V10.5568H97.0666C97.2456 10.169 97.5173 9.85748 97.8819 9.62216C98.2465 9.38352 98.7172 9.2642 99.2939 9.2642C99.8109 9.2642 100.263 9.37027 100.651 9.58239C101.039 9.79119 101.34 10.1094 101.556 10.5369C101.771 10.9612 101.879 11.4981 101.879 12.1477V17H100.706V12.2273C100.706 11.6274 100.55 11.16 100.238 10.8253C99.9269 10.4872 99.4993 10.3182 98.9558 10.3182C98.5813 10.3182 98.2465 10.3994 97.9515 10.5618C97.6599 10.7242 97.4295 10.9612 97.2605 11.2727C97.0914 11.5843 97.0069 11.9621 97.0069 12.4062ZM105.196 12.4062V17H104.023V6.81818H105.196V10.5568H105.296C105.475 10.1624 105.743 9.84919 106.101 9.61719C106.462 9.38187 106.943 9.2642 107.543 9.2642C108.063 9.2642 108.519 9.36861 108.91 9.57741C109.301 9.78291 109.605 10.0994 109.82 10.527C110.039 10.9512 110.148 11.4915 110.148 12.1477V17H108.975V12.2273C108.975 11.6207 108.817 11.1518 108.502 10.8203C108.191 10.4856 107.758 10.3182 107.205 10.3182C106.82 10.3182 106.476 10.3994 106.171 10.5618C105.869 10.7242 105.631 10.9612 105.455 11.2727C105.283 11.5843 105.196 11.9621 105.196 12.4062Z" fill="#22C55E"/>
</svg>
