<svg width="140" height="24" viewBox="0 0 140 24" fill="none" xmlns="http://www.w3.org/2000/svg">
<rect width="140" height="24" rx="4" fill="#FFEDD5"/>
<path d="M24.9261 10H23.6932C23.6203 9.64536 23.4927 9.33381 23.3104 9.06534C23.1314 8.79688 22.9126 8.5715 22.6541 8.3892C22.3989 8.2036 22.1155 8.06439 21.804 7.97159C21.4924 7.87879 21.1676 7.83239 20.8295 7.83239C20.2131 7.83239 19.6546 7.98816 19.1541 8.29972C18.657 8.61127 18.2609 9.07031 17.9659 9.67685C17.6742 10.2834 17.5284 11.0275 17.5284 11.9091C17.5284 12.7907 17.6742 13.5348 17.9659 14.1413C18.2609 14.7479 18.657 15.2069 19.1541 15.5185C19.6546 15.83 20.2131 15.9858 20.8295 15.9858C21.1676 15.9858 21.4924 15.9394 21.804 15.8466C22.1155 15.7538 22.3989 15.6162 22.6541 15.4339C22.9126 15.2483 23.1314 15.0213 23.3104 14.7528C23.4927 14.4811 23.6203 14.1695 23.6932 13.8182H24.9261C24.8333 14.3385 24.6643 14.8042 24.419 15.2152C24.1738 15.6262 23.8688 15.9759 23.5043 16.2642C23.1397 16.5492 22.7304 16.7663 22.2763 16.9155C21.8255 17.0646 21.3433 17.1392 20.8295 17.1392C19.9612 17.1392 19.1889 16.9271 18.5128 16.5028C17.8366 16.0786 17.3047 15.4754 16.9169 14.6932C16.5291 13.911 16.3352 12.983 16.3352 11.9091C16.3352 10.8352 16.5291 9.9072 16.9169 9.125C17.3047 8.3428 17.8366 7.73958 18.5128 7.31534C19.1889 6.8911 19.9612 6.67898 20.8295 6.67898C21.3433 6.67898 21.8255 6.75355 22.2763 6.9027C22.7304 7.05185 23.1397 7.2706 23.5043 7.55895C23.8688 7.84399 24.1738 8.192 24.419 8.60298C24.6643 9.01065 24.8333 9.47633 24.9261 10ZM27.9327 12.4062V17H26.7594V6.81818H27.9327V10.5568H28.0321C28.2111 10.1624 28.4796 9.84919 28.8375 9.61719C29.1988 9.38187 29.6794 9.2642 30.2793 9.2642C30.7997 9.2642 31.2554 9.36861 31.6465 9.57741C32.0376 9.78291 32.3409 10.0994 32.5563 10.527C32.775 10.9512 32.8844 11.4915 32.8844 12.1477V17H31.7111V12.2273C31.7111 11.6207 31.5537 11.1518 31.2388 10.8203C30.9273 10.4856 30.4947 10.3182 29.9412 10.3182C29.5568 10.3182 29.2121 10.3994 28.9071 10.5618C28.6055 10.7242 28.3669 10.9612 28.1912 11.2727C28.0189 11.5843 27.9327 11.9621 27.9327 12.4062ZM41.9116 9.02557H42.9457C42.9457 9.52936 42.8794 9.95194 42.7468 10.2933C42.6142 10.6314 42.3822 10.8866 42.0508 11.0589C41.7193 11.228 41.2553 11.3125 40.6587 11.3125V10.4972C41.0697 10.4972 41.3614 10.4474 41.5337 10.348C41.7094 10.2453 41.8155 10.0862 41.8519 9.87074C41.8917 9.65199 41.9116 9.37026 41.9116 9.02557ZM39.8434 13.8778V9.36364H41.0167V17H39.8434V15.7074H39.7638C39.5849 16.0952 39.3065 16.425 38.9286 16.6967C38.5508 16.9652 38.0735 17.0994 37.4968 17.0994C37.0195 17.0994 36.5953 16.995 36.2241 16.7862C35.8529 16.5741 35.5612 16.2559 35.3491 15.8317C35.137 15.4041 35.0309 14.8655 35.0309 14.2159V9.36364H36.2042V14.1364C36.2042 14.6932 36.36 15.1373 36.6715 15.4688C36.9864 15.8002 37.3874 15.9659 37.8746 15.9659C38.1663 15.9659 38.463 15.8913 38.7646 15.7422C39.0695 15.593 39.3247 15.3643 39.5302 15.0561C39.739 14.7479 39.8434 14.3551 39.8434 13.8778ZM45.987 17.179C45.5031 17.179 45.064 17.0878 44.6696 16.9055C44.2752 16.7199 43.9619 16.4531 43.7299 16.1051C43.4979 15.7538 43.3819 15.3295 43.3819 14.8324C43.3819 14.3949 43.4681 14.0402 43.6404 13.7685C43.8128 13.4934 44.0431 13.2779 44.3315 13.1222C44.6199 12.9664 44.938 12.8504 45.286 12.7741C45.6374 12.6946 45.9904 12.6316 46.345 12.5852C46.809 12.5256 47.1852 12.4808 47.4735 12.451C47.7652 12.4179 47.9773 12.3632 48.1099 12.2869C48.2458 12.2107 48.3137 12.0781 48.3137 11.8892V11.8494C48.3137 11.3589 48.1795 10.9777 47.911 10.706C47.6459 10.4342 47.2432 10.2983 46.7029 10.2983C46.1428 10.2983 45.7037 10.4209 45.3855 10.6662C45.0673 10.9115 44.8436 11.1733 44.7143 11.4517L43.6007 11.054C43.7995 10.59 44.0647 10.2287 44.3961 9.97017C44.7309 9.70833 45.0955 9.52604 45.4899 9.4233C45.8876 9.31723 46.2787 9.2642 46.6632 9.2642C46.9084 9.2642 47.1902 9.29403 47.5083 9.35369C47.8298 9.41004 48.1397 9.5277 48.438 9.70668C48.7396 9.88565 48.9899 10.1558 49.1887 10.517C49.3876 10.8783 49.487 11.3622 49.487 11.9688V17H48.3137V15.9659H48.2541C48.1745 16.1316 48.042 16.3089 47.8564 16.4979C47.6708 16.6868 47.4238 16.8475 47.1156 16.9801C46.8074 17.1127 46.4312 17.179 45.987 17.179ZM46.166 16.125C46.63 16.125 47.0211 16.0339 47.3393 15.8516C47.6608 15.6693 47.9028 15.4339 48.0652 15.1456C48.2309 14.8572 48.3137 14.554 48.3137 14.2358V13.1619C48.264 13.2216 48.1547 13.2763 47.9856 13.326C47.8199 13.3724 47.6277 13.4138 47.4089 13.4503C47.1935 13.4834 46.983 13.5133 46.7775 13.5398C46.5753 13.563 46.4113 13.5829 46.2853 13.5994C45.9804 13.6392 45.6954 13.7038 45.4302 13.7933C45.1684 13.8795 44.9563 14.0104 44.7939 14.1861C44.6348 14.3584 44.5552 14.5937 44.5552 14.892C44.5552 15.2997 44.706 15.608 45.0076 15.8168C45.3126 16.0223 45.6987 16.125 46.166 16.125ZM58.6683 17.1591C57.9524 17.1591 57.3359 16.9901 56.8189 16.652C56.3018 16.3139 55.9041 15.8482 55.6257 15.255C55.3473 14.6617 55.2081 13.9839 55.2081 13.2216C55.2081 12.446 55.3506 11.7616 55.6357 11.1683C55.924 10.5717 56.325 10.1061 56.8388 9.77131C57.3558 9.43324 57.959 9.2642 58.6484 9.2642C59.1854 9.2642 59.6693 9.36364 60.1001 9.5625C60.531 9.76136 60.884 10.0398 61.1591 10.3977C61.4342 10.7557 61.6049 11.1733 61.6712 11.6506H60.4979C60.4084 11.3026 60.2095 10.9943 59.9013 10.7259C59.5964 10.4541 59.1854 10.3182 58.6683 10.3182C58.2109 10.3182 57.8099 10.4375 57.4652 10.6761C57.1238 10.9115 56.857 11.2446 56.6648 11.6754C56.4759 12.103 56.3814 12.6051 56.3814 13.1818C56.3814 13.7718 56.4742 14.2855 56.6598 14.723C56.8487 15.1605 57.1139 15.5002 57.4553 15.7422C57.8 15.9841 58.2043 16.1051 58.6683 16.1051C58.9732 16.1051 59.25 16.0521 59.4986 15.946C59.7472 15.84 59.9576 15.6875 60.13 15.4886C60.3023 15.2898 60.425 15.0511 60.4979 14.7727H61.6712C61.6049 15.2235 61.4408 15.6295 61.179 15.9908C60.9205 16.3487 60.5774 16.6338 60.1499 16.8459C59.7256 17.0547 59.2318 17.1591 58.6683 17.1591ZM66.4886 17.1591C65.7992 17.1591 65.1944 16.995 64.674 16.6669C64.157 16.3388 63.7526 15.8797 63.4609 15.2898C63.1726 14.6998 63.0284 14.0104 63.0284 13.2216C63.0284 12.4261 63.1726 11.7318 63.4609 11.1385C63.7526 10.5452 64.157 10.0845 64.674 9.75639C65.1944 9.42827 65.7992 9.2642 66.4886 9.2642C67.178 9.2642 67.7813 9.42827 68.2983 9.75639C68.8187 10.0845 69.223 10.5452 69.5114 11.1385C69.803 11.7318 69.9489 12.4261 69.9489 13.2216C69.9489 14.0104 69.803 14.6998 69.5114 15.2898C69.223 15.8797 68.8187 16.3388 68.2983 16.6669C67.7813 16.995 67.178 17.1591 66.4886 17.1591ZM66.4886 16.1051C67.0123 16.1051 67.4432 15.9709 67.7812 15.7024C68.1193 15.4339 68.3696 15.081 68.532 14.6435C68.6944 14.206 68.7756 13.732 68.7756 13.2216C68.7756 12.7112 68.6944 12.2356 68.532 11.7947C68.3696 11.3539 68.1193 10.9976 67.7812 10.7259C67.4432 10.4541 67.0123 10.3182 66.4886 10.3182C65.965 10.3182 65.5341 10.4541 65.196 10.7259C64.858 10.9976 64.6077 11.3539 64.4453 11.7947C64.2829 12.2356 64.2017 12.7112 64.2017 13.2216C64.2017 13.732 64.2829 14.206 64.4453 14.6435C64.6077 15.081 64.858 15.4339 65.196 15.7024C65.5341 15.9709 65.965 16.1051 66.4886 16.1051ZM65.9517 8.32955L67.1648 6.02273H68.5369L66.9858 8.32955H65.9517ZM76.7711 14.2159L76.7512 12.7642H76.9899L80.3308 9.36364H81.7825L78.2228 12.9631H78.1234L76.7711 14.2159ZM75.6774 17V6.81818H76.8507V17H75.6774ZM80.5297 17L77.5467 13.2216L78.3819 12.4062L82.0211 17H80.5297ZM86.1799 17.1591C85.4441 17.1591 84.8094 16.9967 84.2757 16.6719C83.7454 16.3438 83.3361 15.8864 83.0478 15.2997C82.7627 14.7098 82.6202 14.0237 82.6202 13.2415C82.6202 12.4593 82.7627 11.7699 83.0478 11.1733C83.3361 10.5734 83.7372 10.1061 84.2509 9.77131C84.7679 9.43324 85.3712 9.2642 86.0605 9.2642C86.4583 9.2642 86.851 9.33049 87.2388 9.46307C87.6266 9.59564 87.9796 9.81108 88.2978 10.1094C88.6159 10.4044 88.8695 10.7955 89.0584 11.2827C89.2473 11.7699 89.3418 12.3698 89.3418 13.0824V13.5795H83.4554V12.5653H88.1486C88.1486 12.1345 88.0624 11.75 87.8901 11.4119C87.7211 11.0739 87.4791 10.8071 87.1642 10.6115C86.8527 10.416 86.4848 10.3182 86.0605 10.3182C85.5932 10.3182 85.1889 10.4342 84.8475 10.6662C84.5094 10.8949 84.2492 11.1932 84.0669 11.5611C83.8846 11.929 83.7935 12.3234 83.7935 12.7443V13.4205C83.7935 13.9972 83.8929 14.486 84.0918 14.8871C84.294 15.2848 84.574 15.5881 84.932 15.7969C85.29 16.0024 85.7059 16.1051 86.1799 16.1051C86.4881 16.1051 86.7665 16.062 87.0151 15.9759C87.267 15.8864 87.4841 15.7538 87.6664 15.5781C87.8487 15.3991 87.9895 15.1771 88.089 14.9119L89.2225 15.2301C89.1032 15.6146 88.9026 15.9527 88.6209 16.2443C88.3392 16.5327 87.9912 16.758 87.5769 16.9205C87.1626 17.0795 86.6969 17.1591 86.1799 17.1591ZM83.4355 8.40909L85.464 6.59943H86.5577L88.5861 8.40909H87.1543L86.0208 7.35511L84.8873 8.40909H83.4355ZM88.0492 7.19602L89.0236 5.40625H90.4753L89.0833 7.19602H88.0492ZM94.4476 9.36364V10.358H90.4902V9.36364H94.4476ZM91.6436 7.53409H92.8169V14.8125C92.8169 15.1439 92.865 15.3925 92.9611 15.5582C93.0605 15.7206 93.1865 15.83 93.339 15.8864C93.4947 15.9394 93.6588 15.9659 93.8311 15.9659C93.9604 15.9659 94.0665 15.9593 94.1493 15.946C94.2322 15.9295 94.2985 15.9162 94.3482 15.9062L94.5868 16.9602C94.5073 16.9901 94.3962 17.0199 94.2537 17.0497C94.1112 17.0829 93.9306 17.0994 93.7118 17.0994C93.3804 17.0994 93.0556 17.0282 92.7374 16.8857C92.4225 16.7431 92.1607 16.526 91.9519 16.2344C91.7464 15.9427 91.6436 15.5748 91.6436 15.1307V7.53409ZM105.36 19.8636V15.8267H105.261C105.175 15.9659 105.052 16.1416 104.893 16.3537C104.734 16.5625 104.507 16.7498 104.212 16.9155C103.917 17.0779 103.524 17.1591 103.034 17.1591C102.397 17.1591 101.835 16.9983 101.348 16.6768C100.861 16.352 100.48 15.8946 100.205 15.3047C99.9296 14.7114 99.7921 14.0104 99.7921 13.2017C99.7921 12.3996 99.9296 11.7036 100.205 11.1136C100.48 10.5237 100.863 10.0679 101.353 9.74645C101.844 9.42495 102.41 9.2642 103.053 9.2642C103.551 9.2642 103.943 9.34706 104.232 9.51278C104.523 9.67519 104.745 9.8608 104.898 10.0696C105.054 10.2751 105.175 10.4441 105.261 10.5767H105.4V9.36364H106.534V19.8636H105.36ZM103.193 16.1051C103.663 16.1051 104.061 15.9825 104.386 15.7372C104.711 15.4886 104.958 15.1456 105.127 14.7081C105.296 14.2673 105.38 13.7585 105.38 13.1818C105.38 12.6117 105.297 12.1129 105.132 11.6854C104.966 11.2545 104.721 10.9197 104.396 10.6811C104.071 10.4392 103.67 10.3182 103.193 10.3182C102.695 10.3182 102.281 10.4458 101.95 10.701C101.622 10.9529 101.375 11.2959 101.209 11.7301C101.047 12.161 100.965 12.6449 100.965 13.1818C100.965 13.7254 101.048 14.2192 101.214 14.6634C101.383 15.1042 101.632 15.4555 101.96 15.7173C102.291 15.9759 102.702 16.1051 103.193 16.1051ZM113.494 13.8778V9.36364H114.667V17H113.494V15.7074H113.414C113.235 16.0952 112.957 16.425 112.579 16.6967C112.201 16.9652 111.724 17.0994 111.147 17.0994C110.67 17.0994 110.246 16.995 109.874 16.7862C109.503 16.5741 109.212 16.2559 108.999 15.8317C108.787 15.4041 108.681 14.8655 108.681 14.2159V9.36364H109.855V14.1364C109.855 14.6932 110.01 15.1373 110.322 15.4688C110.637 15.8002 111.038 15.9659 111.525 15.9659C111.817 15.9659 112.113 15.8913 112.415 15.7422C112.72 15.593 112.975 15.3643 113.181 15.0561C113.389 14.7479 113.494 14.3551 113.494 13.8778ZM119.063 17.179C118.579 17.179 118.14 17.0878 117.746 16.9055C117.351 16.7199 117.038 16.4531 116.806 16.1051C116.574 15.7538 116.458 15.3295 116.458 14.8324C116.458 14.3949 116.544 14.0402 116.717 13.7685C116.889 13.4934 117.119 13.2779 117.408 13.1222C117.696 12.9664 118.014 12.8504 118.362 12.7741C118.714 12.6946 119.067 12.6316 119.421 12.5852C119.885 12.5256 120.261 12.4808 120.55 12.451C120.841 12.4179 121.054 12.3632 121.186 12.2869C121.322 12.2107 121.39 12.0781 121.39 11.8892V11.8494C121.39 11.3589 121.256 10.9777 120.987 10.706C120.722 10.4342 120.319 10.2983 119.779 10.2983C119.219 10.2983 118.78 10.4209 118.462 10.6662C118.143 10.9115 117.92 11.1733 117.79 11.4517L116.677 11.054C116.876 10.59 117.141 10.2287 117.472 9.97017C117.807 9.70833 118.172 9.52604 118.566 9.4233C118.964 9.31723 119.355 9.2642 119.739 9.2642C119.985 9.2642 120.266 9.29403 120.585 9.35369C120.906 9.41004 121.216 9.5277 121.514 9.70668C121.816 9.88565 122.066 10.1558 122.265 10.517C122.464 10.8783 122.563 11.3622 122.563 11.9688V17H121.39V15.9659H121.33C121.251 16.1316 121.118 16.3089 120.933 16.4979C120.747 16.6868 120.5 16.8475 120.192 16.9801C119.884 17.1127 119.507 17.179 119.063 17.179ZM119.242 16.125C119.706 16.125 120.097 16.0339 120.415 15.8516C120.737 15.6693 120.979 15.4339 121.141 15.1456C121.307 14.8572 121.39 14.554 121.39 14.2358V13.1619C121.34 13.2216 121.231 13.2763 121.062 13.326C120.896 13.3724 120.704 13.4138 120.485 13.4503C120.27 13.4834 120.059 13.5133 119.854 13.5398C119.652 13.563 119.487 13.5829 119.362 13.5994C119.057 13.6392 118.772 13.7038 118.506 13.7933C118.245 13.8795 118.032 14.0104 117.87 14.1861C117.711 14.3584 117.631 14.5937 117.631 14.892C117.631 15.2997 117.782 15.608 118.084 15.8168C118.389 16.0223 118.775 16.125 119.242 16.125ZM120.336 8.32955H119.362V7.25568C119.71 7.2358 119.955 7.18774 120.097 7.11151C120.243 7.03527 120.316 6.91761 120.316 6.75852C120.316 6.57955 120.212 6.44863 120.003 6.36577C119.794 6.28291 119.54 6.24148 119.242 6.24148L119.282 5.4858C119.968 5.4858 120.487 5.60511 120.838 5.84375C121.193 6.08239 121.37 6.40057 121.37 6.7983C121.37 7.13636 121.262 7.38329 121.047 7.53906C120.831 7.69484 120.594 7.79261 120.336 7.83239V8.32955Z" fill="#EA580C"/>
</svg>
