<svg width="120" height="24" viewBox="0 0 120 24" fill="none" xmlns="http://www.w3.org/2000/svg">
<rect width="120" height="24" rx="4" fill="#FECACA"/>
<path d="M15.375 17H12.929V15.9062H15.2955C16.1373 15.9062 16.835 15.7438 17.3885 15.419C17.942 15.0942 18.3546 14.6319 18.6264 14.032C18.8982 13.4321 19.0341 12.7178 19.0341 11.8892C19.0341 11.0672 18.8999 10.3596 18.6314 9.76633C18.3629 9.16974 17.9619 8.71236 17.4283 8.39418C16.8946 8.07268 16.2301 7.91193 15.4347 7.91193H12.8693V6.81818H15.5142C16.5019 6.81818 17.3471 7.02202 18.0497 7.42969C18.7524 7.83404 19.291 8.41572 19.6655 9.17472C20.04 9.9304 20.2273 10.8352 20.2273 11.8892C20.2273 12.9498 20.0384 13.8629 19.6605 14.6286C19.2827 15.3909 18.7325 15.9775 18.0099 16.3885C17.2874 16.7962 16.4091 17 15.375 17ZM13.4659 6.81818V17H12.233V6.81818H13.4659ZM10.6619 12.2074V11.2926H15.0369V12.2074H10.6619ZM22.1364 17V9.36364H23.3097V17H22.1364ZM22.733 8.09091C22.5043 8.09091 22.3071 8.01302 22.1413 7.85724C21.9789 7.70147 21.8977 7.5142 21.8977 7.29545C21.8977 7.0767 21.9789 6.88944 22.1413 6.73366C22.3071 6.57789 22.5043 6.5 22.733 6.5C22.9616 6.5 23.1572 6.57789 23.3196 6.73366C23.4853 6.88944 23.5682 7.0767 23.5682 7.29545C23.5682 7.5142 23.4853 7.70147 23.3196 7.85724C23.1572 8.01302 22.9616 8.09091 22.733 8.09091ZM28.6603 17.1591C27.9245 17.1591 27.2898 16.9967 26.7562 16.6719C26.2259 16.3438 25.8166 15.8864 25.5282 15.2997C25.2432 14.7098 25.1007 14.0237 25.1007 13.2415C25.1007 12.4593 25.2432 11.7699 25.5282 11.1733C25.8166 10.5734 26.2176 10.1061 26.7314 9.77131C27.2484 9.43324 27.8516 9.2642 28.541 9.2642C28.9387 9.2642 29.3315 9.33049 29.7193 9.46307C30.1071 9.59564 30.4601 9.81108 30.7782 10.1094C31.0964 10.4044 31.35 10.7955 31.5389 11.2827C31.7278 11.7699 31.8223 12.3698 31.8223 13.0824V13.5795H25.9359V12.5653H30.6291C30.6291 12.1345 30.5429 11.75 30.3706 11.4119C30.2015 11.0739 29.9596 10.8071 29.6447 10.6115C29.3332 10.416 28.9653 10.3182 28.541 10.3182C28.0737 10.3182 27.6693 10.4342 27.3279 10.6662C26.9899 10.8949 26.7297 11.1932 26.5474 11.5611C26.3651 11.929 26.274 12.3234 26.274 12.7443V13.4205C26.274 13.9972 26.3734 14.486 26.5723 14.8871C26.7744 15.2848 27.0545 15.5881 27.4125 15.7969C27.7704 16.0024 28.1864 16.1051 28.6603 16.1051C28.9686 16.1051 29.247 16.062 29.4956 15.9759C29.7475 15.8864 29.9645 15.7538 30.1468 15.5781C30.3291 15.3991 30.47 15.1771 30.5694 14.9119L31.7029 15.2301C31.5836 15.6146 31.3831 15.9527 31.1014 16.2443C30.8197 16.5327 30.4717 16.758 30.0574 16.9205C29.6431 17.0795 29.1774 17.1591 28.6603 17.1591ZM29.0183 6.61932L31.0467 8.42898H29.6149L28.4814 7.375L27.3478 8.42898H25.916L27.9245 6.61932H29.0183ZM25.4785 5.40625L26.4331 7.21591H25.4189L24.0069 5.40625H25.4785ZM38.4196 13.8778V9.36364H39.5929V17H38.4196V15.7074H38.34C38.161 16.0952 37.8826 16.425 37.5048 16.6967C37.127 16.9652 36.6497 17.0994 36.073 17.0994C35.5957 17.0994 35.1715 16.995 34.8002 16.7862C34.429 16.5741 34.1374 16.2559 33.9252 15.8317C33.7131 15.4041 33.6071 14.8655 33.6071 14.2159V9.36364H34.7804V14.1364C34.7804 14.6932 34.9361 15.1373 35.2477 15.4688C35.5626 15.8002 35.9636 15.9659 36.4508 15.9659C36.7425 15.9659 37.0391 15.8913 37.3407 15.7422C37.6457 15.593 37.9009 15.3643 38.1064 15.0561C38.3152 14.7479 38.4196 14.3551 38.4196 13.8778ZM48.7816 17.1591C48.0657 17.1591 47.4492 16.9901 46.9322 16.652C46.4151 16.3139 46.0174 15.8482 45.739 15.255C45.4606 14.6617 45.3214 13.9839 45.3214 13.2216C45.3214 12.446 45.4639 11.7616 45.7489 11.1683C46.0373 10.5717 46.4383 10.1061 46.9521 9.77131C47.4691 9.43324 48.0723 9.2642 48.7617 9.2642C49.2987 9.2642 49.7826 9.36364 50.2134 9.5625C50.6443 9.76136 50.9973 10.0398 51.2724 10.3977C51.5475 10.7557 51.7182 11.1733 51.7844 11.6506H50.6112C50.5217 11.3026 50.3228 10.9943 50.0146 10.7259C49.7096 10.4541 49.2987 10.3182 48.7816 10.3182C48.3242 10.3182 47.9232 10.4375 47.5785 10.6761C47.2371 10.9115 46.9703 11.2446 46.7781 11.6754C46.5891 12.103 46.4947 12.6051 46.4947 13.1818C46.4947 13.7718 46.5875 14.2855 46.7731 14.723C46.962 15.1605 47.2272 15.5002 47.5685 15.7422C47.9132 15.9841 48.3176 16.1051 48.7816 16.1051C49.0865 16.1051 49.3633 16.0521 49.6119 15.946C49.8604 15.84 50.0709 15.6875 50.2433 15.4886C50.4156 15.2898 50.5382 15.0511 50.6112 14.7727H51.7844C51.7182 15.2235 51.5541 15.6295 51.2923 15.9908C51.0337 16.3487 50.6907 16.6338 50.2631 16.8459C49.8389 17.0547 49.3451 17.1591 48.7816 17.1591ZM54.6729 12.4062V17H53.4996V6.81818H54.6729V10.5568H54.7724C54.9513 10.1624 55.2198 9.84919 55.5778 9.61719C55.939 9.38187 56.4196 9.2642 57.0195 9.2642C57.5399 9.2642 57.9956 9.36861 58.3867 9.57741C58.7778 9.78291 59.0811 10.0994 59.2965 10.527C59.5153 10.9512 59.6246 11.4915 59.6246 12.1477V17H58.4513V12.2273C58.4513 11.6207 58.2939 11.1518 57.979 10.8203C57.6675 10.4856 57.235 10.3182 56.6815 10.3182C56.297 10.3182 55.9523 10.3994 55.6474 10.5618C55.3458 10.7242 55.1071 10.9612 54.9315 11.2727C54.7591 11.5843 54.6729 11.9621 54.6729 12.4062ZM61.7711 17V9.36364H62.9444V17H61.7711ZM62.8848 8.32955H61.9103V7.25568C62.2583 7.2358 62.5036 7.18774 62.6461 7.11151C62.792 7.03527 62.8649 6.91761 62.8649 6.75852C62.8649 6.57955 62.7605 6.44863 62.5517 6.36577C62.3429 6.28291 62.0893 6.24148 61.791 6.24148L61.8308 5.4858C62.5169 5.4858 63.0356 5.60511 63.3869 5.84375C63.7415 6.08239 63.9189 6.40057 63.9189 6.7983C63.9189 7.13636 63.8111 7.38329 63.5957 7.53906C63.3803 7.69484 63.1433 7.79261 62.8848 7.83239V8.32955ZM66.2667 12.4062V17H65.0934V9.36364H66.2269V10.5568H66.3263C66.5053 10.169 66.7771 9.85748 67.1417 9.62216C67.5063 9.38352 67.9769 9.2642 68.5536 9.2642C69.0707 9.2642 69.5231 9.37027 69.9109 9.58239C70.2987 9.79119 70.6003 10.1094 70.8157 10.5369C71.0311 10.9612 71.1388 11.4981 71.1388 12.1477V17H69.9656V12.2273C69.9656 11.6274 69.8098 11.16 69.4982 10.8253C69.1867 10.4872 68.7591 10.3182 68.2156 10.3182C67.841 10.3182 67.5063 10.3994 67.2113 10.5618C66.9196 10.7242 66.6893 10.9612 66.5202 11.2727C66.3512 11.5843 66.2667 11.9621 66.2667 12.4062ZM74.4561 12.4062V17H73.2828V6.81818H74.4561V10.5568H74.5556C74.7346 10.1624 75.003 9.84919 75.361 9.61719C75.7222 9.38187 76.2028 9.2642 76.8027 9.2642C77.3231 9.2642 77.7788 9.36861 78.1699 9.57741C78.561 9.78291 78.8643 10.0994 79.0797 10.527C79.2985 10.9512 79.4078 11.4915 79.4078 12.1477V17H78.2346V12.2273C78.2346 11.6207 78.0771 11.1518 77.7623 10.8203C77.4507 10.4856 77.0182 10.3182 76.4647 10.3182C76.0802 10.3182 75.7355 10.3994 75.4306 10.5618C75.129 10.7242 74.8903 10.9612 74.7147 11.2727C74.5423 11.5843 74.4561 11.9621 74.4561 12.4062ZM86.6651 12.4062V17H85.4918V6.81818H86.6651V10.5568H86.7646C86.9435 10.1624 87.212 9.84919 87.57 9.61719C87.9312 9.38187 88.4118 9.2642 89.0117 9.2642C89.5321 9.2642 89.9878 9.36861 90.3789 9.57741C90.77 9.78291 91.0733 10.0994 91.2887 10.527C91.5075 10.9512 91.6168 11.4915 91.6168 12.1477V17H90.4435V12.2273C90.4435 11.6207 90.2861 11.1518 89.9712 10.8203C89.6597 10.4856 89.2272 10.3182 88.6737 10.3182C88.2892 10.3182 87.9445 10.3994 87.6396 10.5618C87.3379 10.7242 87.0993 10.9612 86.9237 11.2727C86.7513 11.5843 86.6651 11.9621 86.6651 12.4062ZM98.5758 13.8778V9.36364H99.7491V17H98.5758V15.7074H98.4963C98.3173 16.0952 98.0389 16.425 97.661 16.6967C97.2832 16.9652 96.8059 17.0994 96.2292 17.0994C95.752 17.0994 95.3277 16.995 94.9565 16.7862C94.5853 16.5741 94.2936 16.2559 94.0815 15.8317C93.8694 15.4041 93.7633 14.8655 93.7633 14.2159V9.36364H94.9366V14.1364C94.9366 14.6932 95.0924 15.1373 95.4039 15.4688C95.7188 15.8002 96.1199 15.9659 96.6071 15.9659C96.8987 15.9659 97.1954 15.8913 97.497 15.7422C97.8019 15.593 98.0571 15.3643 98.2626 15.0561C98.4714 14.7479 98.5758 14.3551 98.5758 13.8778ZM97.2832 8.32955H96.3088V7.25568C96.6568 7.2358 96.902 7.18774 97.0446 7.11151C97.1904 7.03527 97.2633 6.91761 97.2633 6.75852C97.2633 6.57955 97.1589 6.44863 96.9501 6.36577C96.7413 6.28291 96.4877 6.24148 96.1895 6.24148L96.2292 5.4858C96.9153 5.4858 97.434 5.60511 97.7853 5.84375C98.14 6.08239 98.3173 6.40057 98.3173 6.7983C98.3173 7.13636 98.2096 7.38329 97.9941 7.53906C97.7787 7.69484 97.5417 7.79261 97.2832 7.83239V8.32955ZM102.654 19.8636C102.455 19.8636 102.278 19.8471 102.122 19.8139C101.966 19.7841 101.858 19.7543 101.799 19.7244L102.097 18.6903C102.382 18.7633 102.634 18.7898 102.853 18.7699C103.071 18.75 103.265 18.6522 103.434 18.4766C103.607 18.3042 103.764 18.0241 103.907 17.6364L104.125 17.0398L101.301 9.36364H102.574L104.682 15.4489H104.762L106.87 9.36364H108.142L104.901 18.1136C104.755 18.508 104.574 18.8345 104.359 19.093C104.144 19.3549 103.893 19.5488 103.608 19.6747C103.327 19.8007 103.008 19.8636 102.654 19.8636Z" fill="#DC2626"/>
</svg>
